Place,Sex,Name,CyrillicName,BodyweightKg,Country,Squat1Kg,Squat2Kg,Squat3Kg,Best3SquatKg,Squat4Kg,Bench1Kg,Bench2Kg,Bench3Kg,Best3BenchKg,Bench4Kg,Deadlift1Kg,Deadlift2Kg,Deadlift3Kg,Best3DeadliftKg,Deadlift4Kg,TotalKg,WeightClassKg,Event,Equipment,Tested,Division,Age,BirthDate
1,F,Mariya Logutenko,Мария Логутенко,55.5,Russia,80,-90,90,90,,40,-42.5,42.5,42.5,,100,105,-110,105,,237.5,56,SBD,Raw,Yes,Open,30,1991-04-24
1,F,Natalya Savosh,Наталья Савош,67.3,Russia,100,110,-115,110,,55,60,62.5,62.5,,105,115,125,125,,297.5,67.5,SBD,Raw,Yes,Open,39,1982-02-04
1,F,Viktoriya Kakaulina,Виктория Какаулина,72.4,Russia,85,90,-95,90,,57.5,65,-67.5,65,,115,125,130,130,,285,75,SBD,Raw,Yes,Juniors 20-23,22,1998-11-13
1,M,Zakhar Lapin,Захар Лапин,41.4,Russia,40,45,50,50,,25,-30,30,30,,50,60,65,65,,145,52,SBD,Raw,Yes,Youth,11,2009-08-23
1,M,Daniil Lagerev,Даниил Лагерев,53.4,Russia,-60,-60,60,60,,-35,35,37.5,37.5,,60,70,75,75,,172.5,56,SBD,Raw,Yes,Youth,11,2009-09-15
1,M,Ilya Evdokimov,Илья Евдокимов,65.8,Russia,140,145,150,150,,120,-125,-125,120,,170,180,-185,180,,450,67.5,SBD,Raw,Yes,Teen 18-19,18,2002-05-21
1,M,Aleksandr Knyaz,Александр Князь,65.6,Russia,80,90,-95,90,,50,-57.5,-57.5,50,,70,85,95,95,,235,67.5,SBD,Raw,Yes,Open,30,1991-04-19
1,M,Daniil Chalov,Даниил Чалов,70.6,Russia,120,-130,-130,120,,80,-85,85,85,,155,165,-170,165,,370,75,SBD,Raw,Yes,Teen 16-17,16,2004-12-09
1,M,Kirill Bertov,Кирилл Бертов,85.8,Russia,140,-150,160,160,,-120,120,125,125,,-185,195,205,205,,490,90,SBD,Raw,Yes,Juniors 20-23,20,2000-05-17
DQ,M,Kirill Shlegel,Кирилл Шлегель,89.2,Russia,210,220,225,225,,-165,-165,-165,,,,,,,,,90,SBD,Raw,Yes,Juniors 20-23,23,1997-07-22
1,M,Aleksandr Popov #38,Александр Попов,65.1,Russia,110,-120,-120,110,,80,90,100,100,,140,150,165,165,,375,67.5,SBD,Raw,No,Open,36,1985-04-20
1,M,Rinat Khusainov,Ринат Хусаинов,82.1,Russia,260,-275,-275,260,,140,150,-160,150,,230,250,-255,250,,660,82.5,SBD,Raw,No,Open,37,1983-07-04
1,M,Danil Sharov,Данил Шаров,88.6,Russia,200,215,-230,215,,130,-140,-150,130,,250,260,-270,260,,605,90,SBD,Raw,No,Juniors 20-23,20,2000-10-03
1,M,Vladislav Sapozhnikov,Владислав Сапожников,86,Russia,230,240,245,245,,200,207.5,212.5,212.5,,240,250,260,260,,717.5,90,SBD,Raw,No,Open,27,1993-10-21
2,M,Roman Naumenko,Роман Науменко,88,Russia,215,225,235,235,,-160,160,167.5,167.5,,275,290,300,300,,702.5,90,SBD,Raw,No,Open,30,1990-10-01
DQ,M,Viktor Aun,Виктор Аун,85.6,Russia,-210,-210,-215,,,,,,,,,,,,,,90,SBD,Raw,No,Open,42,1978-05-29
1,M,Maksim Ivanov #6,Максим Иванов,92.2,Russia,250,260,-270,260,,170,177.5,-180,177.5,,275,287.5,-300,287.5,,725,100,SBD,Raw,No,Open,31,1989-06-16
DQ,M,Samir Babaev,Самир Бабаев,113.8,Russia,-242.5,-242.5,-242.5,,,,,,,,,,,,,,125,SBD,Raw,No,Open,34,1987-01-21
DQ,M,Egor Lapin,Егор Лапин,56.8,Russia,95,-100,-100,95,,40,45,-50,45,,-90,-90,,,,,60,SBD,Wraps,Yes,Teen 13-15,13,2008-04-07
1,M,Artem Poryadin,Артем Порядин,99.9,Russia,310,330,-350,330,,195,205,-210,205,,300,-320,-320,300,,835,100,SBD,Wraps,No,Open,26,1995-01-11
2,M,Dmitriy Shchukin,Дмитрий Щукин,98.6,Russia,290,-305,310,310,,190,205,-210,205,,275,290,-300,290,,805,100,SBD,Wraps,No,Open,30,1990-11-03
1,M,Maksim Chepurin,Максим Чепурин,118.8,Russia,-290,290,-315,290,,190,-197.5,-197.5,190,,265,280,-290,280,,760,125,SBD,Wraps,No,Open,42,1979-04-05
1,M,Vladimir Murzin,Владимир Мурзин,86.6,Russia,180,190,-200,190,,120,-130,130,130,,180,190,200,200,,520,90,SBD,Single-ply,No,Juniors 20-23,23,1997-12-19
1,F,Lyubov Proskurdina,Любовь Проскурдина,58.6,Russia,,,,,,55,57.5,-62.5,57.5,,,,,,,57.5,60,B,Raw,Yes,Open,37,1983-12-03
1,M,Bogdan Abdurashitov,Богдан Абдурашитов,48,Russia,,,,,,30,35,-37.5,35,,,,,,,35,52,B,Raw,Yes,Youth,12,2008-08-19
1,M,Ilya Evdokimov,Илья Евдокимов,65.8,Russia,,,,,,120,-125,-125,120,,,,,,,120,67.5,B,Raw,Yes,Teen 18-19,18,2002-05-21
2,M,Artyom Chaplinskiy,Артём Чаплинский,62.8,Russia,,,,,,67.5,-75,75,75,,,,,,,75,67.5,B,Raw,Yes,Teen 13-15,15,2005-11-29
1,M,Aleksandr Sankin,Александр Санкин,63.2,Russia,,,,,,-90,95,-107.5,95,,,,,,,95,67.5,B,Raw,Yes,Open,23,1997-12-18
1,M,Vitaliy Grigorev,Виталий Григорьев,67.2,Russia,,,,,,-100,100,-107.5,100,,,,,,,100,67.5,B,Raw,Yes,Masters 45-49,45,1976-04-16
DQ,M,Vladimir Stepanenko,Владимир Степаненко,72.9,Russia,,,,,,-100,-110,-117.5,,,,,,,,,75,B,Raw,Yes,Teen 18-19,18,2003-02-25
DQ,M,Akop Akopyan,Акоп Акопян,74.5,Russia,,,,,,-135,-140,-140,,,,,,,,,75,B,Raw,Yes,Juniors 20-23,21,1999-12-31
DQ,M,Akop Akopyan,Акоп Акопян,74.5,Russia,,,,,,-135,-140,-140,,,,,,,,,75,B,Raw,Yes,Open,21,1999-12-31
1,M,Nikolay Prutovykh,Николай Прутовых,81.5,Russia,,,,,,-145,-150,150,150,,,,,,,150,82.5,B,Raw,Yes,Juniors 20-23,23,1997-11-27
1,M,Vitaliy Semin,Виталий Семин,82,Russia,,,,,,170,-180,-180,170,,,,,,,170,82.5,B,Raw,Yes,Open,30,1990-12-02
2,M,Vladimir Serikov,Владимир Сериков,79.4,Russia,,,,,,-150,160,-167.5,160,,,,,,,160,82.5,B,Raw,Yes,Open,30,1990-07-23
3,M,Evgeniy Shurmin,Евгений Шурмин,81.9,Russia,,,,,,140,145,-147.5,145,,,,,,,145,82.5,B,Raw,Yes,Open,30,1990-10-21
DQ,M,Bogdan Gamolin,Богдан Гамолин,78.7,Russia,,,,,,-117.5,-127.5,-127.5,,,,,,,,,82.5,B,Raw,Yes,Open,25,1995-09-30
1,M,Anatoliy Ergunov,Анатолий Ергунов,82.3,Russia,,,,,,105,112.5,-117.5,112.5,,,,,,,112.5,82.5,B,Raw,Yes,Masters 55-59,55,1965-09-26
1,M,Igor Omelchuk,Игорь Омельчук,81.4,Russia,,,,,,130,135,-137.5,135,,,,,,,135,82.5,B,Raw,Yes,Masters 60-64,60,1960-05-29
1,M,Kirill Shlegel,Кирилл Шлегель,89.2,Russia,,,,,,155,160,-165,160,,,,,,,160,90,B,Raw,Yes,Juniors 20-23,23,1997-07-22
1,M,Sergey Roslyakov,Сергей Росляков,89.3,Russia,,,,,,195,202.5,-205.5,202.5,,,,,,,202.5,90,B,Raw,Yes,Open,34,1986-12-08
2,M,Pavel Kostyurin,Павел Костюрин,87.3,Russia,,,,,,152.5,162.5,167.5,167.5,,,,,,,167.5,90,B,Raw,Yes,Open,31,1989-12-29
1,M,Artem Pudchenko,Артем Пудченко,94.3,Russia,,,,,,90,92.5,-95,92.5,,,,,,,92.5,100,B,Raw,Yes,Juniors 20-23,20,2001-03-29
DQ,M,Sergey Ankudinov,Сергей Анкудинов,96.5,Russia,,,,,,-160,-162.5,-162.5,,,,,,,,,100,B,Raw,Yes,Open,38,1983-04-14
1,M,Konstantin Sigitov,Константин Сигитов,93.9,Russia,,,,,,152.5,157.5,162.5,162.5,,,,,,,162.5,100,B,Raw,Yes,Masters 45-49,48,1972-05-10
1,M,Andrey Glumov,Андрей Глумов,107.7,Russia,,,,,,195,202.5,205,205,,,,,,,205,110,B,Raw,Yes,Open,32,1989-03-19
2,M,Aleksey Golovin,Алексей Головин,104.6,Russia,,,,,,140,145,147.5,147.5,,,,,,,147.5,110,B,Raw,Yes,Open,35,1986-03-01
1,M,Vyacheslav Kolomazhin,Вячеслав Коломажин,105.3,Russia,,,,,,-140,-140,140,140,,,,,,,140,110,B,Raw,Yes,Masters 40-44,44,1976-09-24
1,M,Anatoliy Aniper,Анатолий Анипер,112.3,Russia,,,,,,145,152.5,157.5,157.5,,,,,,,157.5,125,B,Raw,Yes,Masters 40-44,42,1978-08-23
1,M,Viktor Popov #6,Виктор Попов,132.2,Russia,,,,,,130,140,-145,140,,,,,,,140,140,B,Raw,Yes,Masters 55-59,56,1964-06-25
1,M,Anatoliy Marakov,Анатолий Мараков,74.4,Russia,,,,,,110,115,-120,115,,,,,,,115,75,B,Raw,No,Open,27,1993-06-12
1,M,Aleksey Dergunov,Алексей Дергунов,78.4,Russia,,,,,,125,137.5,-142.5,137.5,,,,,,,137.5,82.5,B,Raw,No,Open,33,1988-01-01
1,M,Vladislav Sapozhnikov,Владислав Сапожников,86,Russia,,,,,,200,207.5,212.5,212.5,,,,,,,212.5,90,B,Raw,No,Open,27,1993-10-21
2,M,Sergey Kochenov,Сергей Коченов,88.9,Russia,,,,,,190,202.5,-207.5,202.5,,,,,,,202.5,90,B,Raw,No,Open,38,1982-06-27
1,M,Aleksey Kislyanskiy,Алексей Кислянский,89.3,Russia,,,,,,145,155,-160,155,,,,,,,155,90,B,Raw,No,Masters 40-44,44,1976-07-20
2,M,Shota Arbolishvili,Шота Арболишвили,86.8,Russia,,,,,,-125,132.5,-137.5,132.5,,,,,,,132.5,90,B,Raw,No,Masters 40-44,43,1977-07-24
1,M,Vitaliy Nikolaev,Виталий Николаев,97.1,Russia,,,,,,195,205,210,210,,,,,,,210,100,B,Raw,No,Open,39,1982-04-29
2,M,Dmitriy Shchukin,Дмитрий Щукин,98.6,Russia,,,,,,190,205,-210,205,,,,,,,205,100,B,Raw,No,Open,30,1990-11-03
1,M,Aleksey Mironov,Алексей Миронов,102,Russia,,,,,,170,182.5,192.5,192.5,,,,,,,192.5,110,B,Raw,No,Open,39,1981-07-16
2,M,Andrey Balyuta,Андрей Балюта,104.9,Russia,,,,,,180,190,-200,190,,,,,,,190,110,B,Raw,No,Open,30,1990-07-21
3,M,Ilya Andreev,Илья Андреев,100.4,Russia,,,,,,155,162.5,170,170,,,,,,,170,110,B,Raw,No,Open,34,1986-05-17
4,M,Dmitriy Vasilev,Дмитрий Васильев,101.7,Russia,,,,,,145,155,-160,155,,,,,,,155,110,B,Raw,No,Open,36,1985-01-27
1,M,Aleksandr Dyatlov,Александр Дятлов,105.9,Russia,,,,,,150,160,170,170,,,,,,,170,110,B,Raw,No,Masters 50-54,51,1969-10-14
1,M,Viktor Mistratov,Виктор Мистратов,107,Russia,,,,,,320,340,-355,340,,,,,,,340,110,B,Multi-ply,No,Open,40,1981-02-10
1,M,Viktor Mistratov,Виктор Мистратов,107,Russia,,,,,,320,340,-355,340,,,,,,,340,110,B,Multi-ply,No,Masters 40-44,40,1981-02-10
1,M,Roman Rebushev,Роман Ребушев,133.8,Russia,,,,,,250,260,-270,260,,,,,,,260,140,B,Multi-ply,No,Open,34,1986-07-16
1,F,Anna Krasnyanskaya,Анна Краснянская,55.6,Russia,,,,,,90,95,-100,95,,,,,,,95,56,B,Unlimited,Yes,Open,38,1983-01-21
1,M,Pavel Kostyurin,Павел Костюрин,87.3,Russia,,,,,,-220,220,230,230,,,,,,,230,90,B,Unlimited,Yes,Open,31,1989-12-29
1,M,Andrey Glumov,Андрей Глумов,107.7,Russia,,,,,,270,283,290,290,,,,,,,290,110,B,Unlimited,Yes,Open,32,1989-03-19
1,M,Aleksandr Ponomarev,Александр Пономарев,85.5,Russia,,,,,,-140,145,155,155,,,,,,,155,90,B,Unlimited,No,Masters 40-44,44,1976-11-14
1,M,Yuriy Sufimov,Юрий Суфимов,117,Russia,,,,,,270,290,307.5,307.5,,,,,,,307.5,125,B,Unlimited,No,Open,51,1970-04-20
1,M,Yuriy Sufimov,Юрий Суфимов,117,Russia,,,,,,270,290,307.5,307.5,,,,,,,307.5,125,B,Unlimited,No,Masters 50-54,51,1970-04-20
1,M,Mikhail Lapin,Михаил Лапин,86.1,Russia,,,,,,170,180,-190,180,,,,,,,180,90,B,Unlimited,Yes,Masters 45-49,48,1972-08-06
DQ,M,Elshan Rustamov,Эльшан Рустамов,118.4,Russia,,,,,,-350,-360,-360,,,,,,,,,125,B,Unlimited,No,Open,33,1987-06-22
DQ,M,Maksim Chepurin,Максим Чепурин,118.8,Russia,,,,,,-290,,,,,,,,,,,125,B,Unlimited,No,Open,42,1979-04-05
1,F,Mariya Sideleva,Мария Сиделева,59,Russia,,,,,,,,,,,-120,120,-132.5,120,,120,60,D,Raw,Yes,Open,31,1989-06-22
2,F,Lyubov Proskurdina,Любовь Проскурдина,58.6,Russia,,,,,,,,,,,100,110,115,115,,115,60,D,Raw,Yes,Open,37,1983-12-03
1,F,Olga Shishkova,Ольга Шишкова,99.9,Russia,,,,,,,,,,,90,-100,100,100,,100,90+,D,Raw,Yes,Open,30,1991-04-07
1,M,Nikolay Prutovykh,Николай Прутовых,81.5,Russia,,,,,,,,,,,190,200,-210,200,,200,82.5,D,Raw,Yes,Juniors 20-23,23,1997-11-27
1,M,Mikhail Lapin,Михаил Лапин,86.1,Russia,,,,,,,,,,,-170,190,-205,190,,190,90,D,Raw,Yes,Masters 45-49,48,1972-08-06
1,M,Aleksey Solovev,Алексей Соловьев,94.1,Russia,,,,,,,,,,,210,225,-240,225,,225,100,D,Raw,Yes,Open,39,1981-05-13
1,M,Andrey Dmitriev,Андрей Дмитриев,102.5,Russia,,,,,,,,,,,200,215,-230,215,,215,110,D,Raw,Yes,Juniors 20-23,22,1999-02-04
1,F,Elena Lebedeva,Елена Лебедева,73.1,Russia,,,,,,,,,,,70,80,90,90,,90,75,D,Raw,No,Masters 45-49,48,1972-09-04
1,M,Evald Shtrebling,Эвальд Штреблинг,81.8,Russia,,,,,,,,,,,160,175,-185,175,,175,82.5,D,Raw,No,Open,19,2001-06-07
1,M,Nikolay Prikhodskiy,Николай Приходский,83.3,Russia,,,,,,,,,,,230,250,260,260,,260,90,D,Raw,No,Juniors 20-23,21,2000-01-22
1,M,Roman Naumenko,Роман Науменко,88,Russia,,,,,,,,,,,275,290,300,300,,300,90,D,Raw,No,Open,30,1990-10-01
2,M,Viktor Aun,Виктор Аун,85.6,Russia,,,,,,,,,,,230,250,260,260,,260,90,D,Raw,No,Open,42,1978-05-29
1,M,Samir Babaev,Самир Бабаев,113.8,Russia,,,,,,,,,,,250,270,290,290,,290,125,D,Raw,No,Open,34,1987-01-21
1,M,Aleksandr Rogatenko,Александр Рогатенко,82.2,Russia,,,,,,,,,,,230,255,-265,255,,255,82.5,D,Multi-ply,Yes,Open,38,1982-05-07
