Division,WeightClassKg,Place,Name,Team,BodyweightKg,Best3SquatKg,Best3BenchKg,Best3DeadliftKg,TotalKg,Equipment,Event,Sex,BirthDate
Boys,55.79,DQ,Brandon Minez,Brownsville Porter,55.79,,,,,Single-ply,SBD,M,
Boys,59.87,1,JR Hernandez,Brownsville Rivera,59.87,197.31,104.33,188.24,489.88,Single-ply,SBD,M,
Boys,74.84,1,Jose E Hernandez,Brownsville Rivera,72.12,183.7,115.67,197.31,496.68,Single-ply,SBD,M,
Boys,82.1,1,Angel Escobedo,Brownsville Porter,80.01,129.27,97.52,140.61,367.41,Single-ply,SBD,M,
Boys,89.81,1,Martin Vargas,Brownsville Porter,85.46,240.4,115.67,199.58,555.65,Single-ply,SBD,M,
Boys,89.81,2,Guadalupe Salinas,Brownsville Rivera,86.36,208.65,113.4,215.46,537.51,Single-ply,SBD,M,
Boys,89.81,3,Juan Zavala,Brownsville Porter,85.64,158.76,111.13,172.37,442.25,Single-ply,SBD,M,
Boys,89.81,4,Omar Flores,Brownsville Porter,83.01,102.06,102.06,165.56,369.68,Single-ply,SBD,M,
Boys,99.79,1,Jesus Hernandez #8,Brownsville Rivera,99.06,274.42,149.69,222.26,646.37,Single-ply,SBD,M,
Boys,99.79,2,Mathew Garza,Brownsville Rivera,94.17,249.48,138.35,249.48,637.3,Single-ply,SBD,M,
Boys,99.79,3,Giovanni Ahumada,Brownsville Porter,91.44,226.8,129.27,210.92,566.99,Single-ply,SBD,M,
Boys,109.77,1,Oscar Sauceda,Brownsville Porter,106.5,272.16,154.22,260.82,687.19,Single-ply,SBD,M,
Boys,109.77,2,Hector Guerrero,Brownsville Rivera,108.68,226.8,133.81,197.31,557.92,Single-ply,SBD,M,
Boys,124.74,1,Jesus Salas,Brownsville Rivera,111.13,208.65,117.93,185.97,512.56,Single-ply,SBD,M,
Boys,124.74,2,Ezequiel Torres,Brownsville Rivera,124.74,124.74,72.57,106.59,303.91,Single-ply,SBD,M,
Boys,139.71,1,Abraham Lozano,Brownsville Rivera,128.09,247.21,122.47,215.46,585.13,Single-ply,SBD,M,
