﻿BDFPF BK. - CHAMP POWERLIFTING UNESUIPPED 2012
BK. Powerlifting Unequipped 2012
                                                                                                                               BW    SQ     BE     DL           TOT     POINTS
- 63 KG Wuyts                                    Helen                         Gilbert          20   JR   59,3         125     75                       182,5   382,5   332,32
- 80 KG Dechamps                                 Nadege                        Castors          15   T1   76,3         120     86                       152,5   357,5   254,79
                                                                                                                       125     86,5                     160
56 KG Vermeulen                                  Sven                          Iso Gym          20   JR   53,8         110     85                       131     325     297,99
67,5 KG Cuylle                                   Angelo                        Isogym           18   T3   66,7         132,5   87,5                     190     410     300,82
67,5 KG Bruneel                                  Angelo                        Isogym           18   T3   63,4         125     75                       175     375     288,53
67,5 KG Jacmart                                  Jeremy                        Castors          20   JR   61,7         130     87,5                     170     387,5   306,20
67,5 KG Van Den Abeele                           Tim                           Gilberts Gym     24   SR   62,8         140     115                      175     430     333,90
75 KG De Visscher                                Geovanni Powersport Lebbeke                    18   T3   69,4         180     130                      210     520     368,32
75 KG Sudarminto                                 Indra                         Planet Fitness   21   JR   73,7         225     135                      255     615     414,33
                                                                                                                       230
75 KG Houbracken                                 Kim                           Gilberts Gym     28   SR   69,8         162,5   130                      205     497,5   350,64
75 KG Thirth                                     Ram                           Dynamic Gym      39   SR   73,8         155     140                      220     515     346,60
75 KG Van Den Bogaert                            Tony                          Patton Team      33   SR   74,1         140     80                       180     400     268,32
75 KG Hallewaert                                 Bart                          Isogym           43   M1   73,9         185     135                      242,5   562,5   378,17
75 KG Callemeyn                                  Johny                         Fit 4 fun        58   M4   73,5         140     112,5                    172,5   425     286,96
                                                                                                                                                        180,5
82,5 KG Peeters                                  Alan                          Gilberts Gym     18   T3   78,8         170     132,5                    220     522,5   334,35
82,5 KG Lauweryns                                Jarno                         House of Gain    20   JR   75,6         155     105                      185     445     293,83
82,5 KG Soenes                                   Gillis                        Isogym           21   JR   75,1         140     122,5                    170     432,5   287,09
82,5 KG Servotte                                 Geoffroy                      Planet Fitness   31   SR   82,8         213     172,5                    230     615     381,85
90 KG Van Heesvelde                              Bart                          House Of Gain    19   T3   83,1         150     105                      200     455     280,37
90 KG Velghe                                     Jonas                         Isogym           19   T3   89,2         167,5   90                       175     432,5   254,53
90 KG Verbeke                                    Beny                          Isogym           46   M2   88,5         165     115                      293     572,5   338,58
                                                                                                                                                        300
100 KG Van Heesvelde                             Jeroen                        Patton Team      21   JR   98,7         220     140                      247,5   607,5   338,56
100 KG Theyssens                                 Martin                        Patton Team      72   M7   91,7         110     100                      135     345     199,76
110 KG Van Roy                                   Yannick                       Planet Fitness   20   JR   108,2        210     130                      240     580     312,50
                                                                                                                       212,5
110 KG Peeters                                   Geeraard                      Patton team      25   SR   101,1        175     0                        0       0       0,00
125 KG Golsteyn                                  Bart                          Isogym           46   M2   117,2        180     150                      190     520     275,34
145 KG Dechamps                                  Sebastien                     Castors          18   T3   133,9        245     140                      280     665     339,35
                                                                                                                       250
145 KG Dechamps                                  Jerome                        Castors          24   SR   127,5        245     155                      260     660     341,88
                                                                                                                       250
Nat Record                                                                     World Record               Drugtested
European Record                                                                Best Lifter
7 - 4 - 2012 Merksem
