Name,WeightClassKg,Division,Best3SquatKg,Best3BenchKg,Best3DeadliftKg,TotalKg,Sex,Event,Equipment,Place,Team
Marlena Daniel,48,F-Y,52.16,34.02,70.31,156.49,F,SBD,Single-ply,1,
Sioux-z Hartwig,52,F-O,113.4,70.31,122.47,306.17,F,SBD,Single-ply,1,
