Name,WeightClassKg,Division,Best3SquatKg,Best3BenchKg,Best3DeadliftKg,TotalKg,Sex,Event,Equipment,Place,Team
Heidi Ferns,75,F-O,61.23,70.31,61.23,192.78,F,SBD,Single-ply,1,
Drew Wrobel,52,M-Y,79.38,43.09,83.91,206.38,M,SBD,Single-ply,1,
Paul Sutphin,100,M-M3,276.69,161.03,244.94,682.66,M,SBD,Single-ply,1,
Tom Keim,110,M-Jr,242.67,163.29,206.38,612.35,M,SBD,Single-ply,1,
Dan Hilliard,110,M-O,158.76,145.15,204.12,508.02,M,SBD,Single-ply,1,
Kimberly Reed,44,F-O,,49.9,83.91,133.81,F,BD,Single-ply,1,
Jeff Fremont,75,M-M4,,127.01,131.54,258.55,M,BD,Single-ply,1,
Dan Steltenkamp,110,M-O,,231.33,265.35,496.68,M,BD,Single-ply,1,
