Division,WeightClassKg,Place,Name,Team,BodyweightKg,Best3SquatKg,Best3BenchKg,Best3DeadliftKg,TotalKg,Equipment,Event,Sex
Boys,55.79,1,Anthony Washington,Plainview,51.89,142.88,77.11,163.29,383.29,Single-ply,SBD,M
Boys,51.71,2,Raymon Aranda,Seagraves,51.26,131.54,77.11,156.49,365.14,Single-ply,SBD,M
Boys,51.71,3,Jarred Curtis,Post,50.62,120.2,61.23,127.01,308.44,Single-ply,SBD,M
Boys,51.71,4,Tucker Craig,Midland,47.99,99.79,56.7,102.06,258.55,Single-ply,SBD,M
Boys,55.79,5,Manuel Rena,Anton,51.89,81.65,45.36,102.06,229.06,Single-ply,SBD,M
Boys,55.79,6,Alex Mendiola,Amarillo Caprock,51.89,79.38,52.16,95.25,226.8,Single-ply,SBD,M
Boys,51.71,7,Matthew Rodriguez,Amarillo Caprock,51.26,68.04,43.09,90.72,201.85,Single-ply,SBD,M
Boys,51.71,8,Bj Ambreiez,Slaton,50.08,54.43,36.29,79.38,170.1,Single-ply,SBD,M
Boys,51.71,9,Daniel Denton,Wolfforth Frenship,44.18,61.23,38.56,61.23,161.03,Single-ply,SBD,M
Boys,55.79,1,Matthew Negrete,Seagraves,52.71,133.81,79.38,142.88,356.07,Single-ply,SBD,M
Boys,55.79,2,Diago Lara,Midland,54.16,122.47,79.38,113.4,315.25,Single-ply,SBD,M
Boys,55.79,3,Hayden Belongia,Post,55.61,111.13,79.38,120.2,310.71,Single-ply,SBD,M
Boys,55.79,4,Derek Adame,Plainview,54.43,124.74,72.57,111.13,308.44,Single-ply,SBD,M
Boys,55.79,5,Ricardo Davila,Anton,53.71,90.72,56.7,122.47,269.89,Single-ply,SBD,M
Boys,55.79,6,Davin Luna,Plainview,55.79,108.86,52.16,108.86,269.89,Single-ply,SBD,M
Boys,55.79,7,Daniel Hurn,Levelland,55.16,79.38,49.9,104.33,233.6,Single-ply,SBD,M
Boys,55.79,DQ,Jose Raul Ornelas,Levelland,55.79,,,,,Single-ply,SBD,M
Boys,55.79,DQ,Grant Smith,Levelland,55.34,,,,,Single-ply,SBD,M
Boys,67.13,1,Zane Ponder,Plainview,60.01,170.1,83.91,165.56,419.57,Single-ply,SBD,M
Boys,67.13,2,Danny Gallardo,Plainview,59.96,147.42,81.65,156.49,385.55,Single-ply,SBD,M
Boys,59.87,3,Va-Sheku Sheriff,Amarillo Caprock,59.87,142.88,74.84,108.86,326.59,Single-ply,SBD,M
Boys,59.87,4,Zach Sanchez,Levelland,58.69,115.67,79.38,129.27,324.32,Single-ply,SBD,M
Boys,59.87,5,Albert Nieto,Amarillo Caprock,59.69,113.4,83.91,124.74,322.05,Single-ply,SBD,M
Boys,59.87,6,Frank Arredondo,Levelland,59.06,111.13,61.23,142.88,315.25,Single-ply,SBD,M
Boys,59.87,7,Kobe Young,Wolfforth Frenship,58.15,102.06,63.5,106.59,272.16,Single-ply,SBD,M
Boys,67.13,1,Jordan Ruiz,Seagraves,66.32,244.94,147.42,244.94,637.3,Single-ply,SBD,M
Boys,67.13,2,Eli Rodriguez,Seagraves,66.41,188.24,102.06,190.51,480.81,Single-ply,SBD,M
Boys,67.13,3,Josh Binder,Midland,64.14,156.49,102.06,179.17,437.72,Single-ply,SBD,M
Boys,67.13,4,Jonathan Schwartzenberg,Canyon Randall,63.78,136.08,102.06,163.29,401.43,Single-ply,SBD,M
Boys,67.13,5,Zack Rosas,Plainview,67.04,151.95,86.18,163.29,401.43,Single-ply,SBD,M
Boys,67.13,6,Tristan Bollinger,Midland,63.68,140.61,99.79,154.22,394.63,Single-ply,SBD,M
Boys,67.13,7,Theron Brown,Midland,63.32,147.42,74.84,158.76,381.02,Single-ply,SBD,M
Boys,67.13,8,Alejo Rodriguez,Post,65.41,133.81,88.45,147.42,369.68,Single-ply,SBD,M
Boys,67.13,9,Isaah Jones,Post,66.59,133.81,88.45,147.42,369.68,Single-ply,SBD,M
Boys,67.13,10,Zane Clark,Canyon,63.68,131.54,90.72,142.88,365.14,Single-ply,SBD,M
Boys,67.13,11,Carson Williams,Plainview,67.13,140.61,88.45,136.08,365.14,Single-ply,SBD,M
Boys,67.13,12,Sammy Soto,Post,63.87,124.74,83.91,133.81,342.46,Single-ply,SBD,M
Boys,67.13,13,Patrick Fleming,Anton,66.41,115.67,70.31,147.42,333.39,Single-ply,SBD,M
Boys,67.13,14,Quince Workman,Wolfforth Frenship,66.22,90.72,70.31,145.15,306.17,Single-ply,SBD,M
Boys,67.13,15,Matt Conder,Levelland,66.32,92.99,56.7,113.4,263.08,Single-ply,SBD,M
Boys,67.13,16,Robert Smith,Wolfforth Frenship,62.32,72.57,70.31,117.93,260.82,Single-ply,SBD,M
Boys,67.13,17,Javier Alcorta,Slaton,64.23,102.06,65.77,88.45,256.28,Single-ply,SBD,M
Boys,67.13,DQ,Jace Wood,Anton,62.41,97.52,,,,Single-ply,SBD,M
Boys,74.84,1,Daniel Lockhart #1,Midland,72.48,161.03,108.86,195.04,464.93,Single-ply,SBD,M
Boys,74.84,2,Tyler Hastings,Levelland,73.12,179.17,102.06,158.76,439.98,Single-ply,SBD,M
Boys,74.84,3,Cameron Hurd,Midland,72.21,161.03,90.72,170.1,421.84,Single-ply,SBD,M
Boys,74.84,4,Blake Boren,Post,68.31,142.88,92.99,145.15,381.02,Single-ply,SBD,M
Boys,74.84,5,Pj Corona,Slaton,73.66,129.27,68.04,142.88,340.19,Single-ply,SBD,M
Boys,74.84,6,Blama Saryoung,Amarillo Caprock,69.85,111.13,83.91,136.08,331.12,Single-ply,SBD,M
Boys,74.84,7,Dillon Hibbitts,Seagraves,70.03,115.67,68.04,145.15,328.85,Single-ply,SBD,M
Boys,74.84,8,Kevin Fehr,Wolfforth Frenship,72.85,102.06,74.84,142.88,319.78,Single-ply,SBD,M
Boys,74.84,9,Gage Kenney,Levelland,73.94,97.52,72.57,142.88,312.98,Single-ply,SBD,M
Boys,74.84,10,Caleb Weatherred,Levelland,70.22,102.06,79.38,124.74,306.17,Single-ply,SBD,M
Boys,74.84,11,Josh Salazar,Levelland,68.86,115.67,65.77,113.4,294.84,Single-ply,SBD,M
Boys,74.84,12,Tykendrick Hardrick,Anton,69.04,108.86,52.16,129.27,290.3,Single-ply,SBD,M
Boys,74.84,13,Blaze Smith,Post,71.12,102.06,68.04,111.13,281.23,Single-ply,SBD,M
Boys,74.84,14,Isaac Sanchez,Levelland,73.39,92.99,47.63,102.06,242.67,Single-ply,SBD,M
Boys,74.84,15,Brogan Litche,Anton,74.84,90.72,45.36,88.45,224.53,Single-ply,SBD,M
Boys,82.1,1,Holt Eads,Midland,76.38,183.7,131.54,215.46,530.7,Single-ply,SBD,M
Boys,82.1,2,Nicky Hoang,Midland,76.93,174.63,106.59,215.46,496.68,Single-ply,SBD,M
Boys,82.1,3,Sal Salinas,Midland,78.47,170.1,115.67,204.12,489.88,Single-ply,SBD,M
Boys,82.1,4,Bailey Settle,Plainview,81.19,183.7,108.86,172.37,464.93,Single-ply,SBD,M
Boys,82.1,5,Josh Acevedo,Wolfforth Frenship,78.93,142.88,102.06,147.42,392.36,Single-ply,SBD,M
Boys,82.1,6,Cutter Paris,Canyon Randall,76.11,133.81,92.99,147.42,374.21,Single-ply,SBD,M
Boys,82.1,7,Juan Ramirez,Wolfforth Frenship,81.74,124.74,92.99,156.49,374.21,Single-ply,SBD,M
Boys,82.1,8,Rudy Garcia,Amarillo Caprock,79.29,142.88,86.18,129.27,358.34,Single-ply,SBD,M
Boys,82.1,9,Tristan Fannon,Post,75.75,111.13,88.45,149.69,349.27,Single-ply,SBD,M
Boys,82.1,10,Ethan Moseley,Wolfforth Frenship,81.92,120.2,74.84,136.08,331.12,Single-ply,SBD,M
Boys,82.1,11,Colton Brown,Wolfforth Frenship,77.56,117.93,68.04,136.08,322.05,Single-ply,SBD,M
Boys,82.1,DQ,Shawn Stewart,Amarillo Caprock,81.65,,,,,Single-ply,SBD,M
Boys,82.1,DQ,Turner Phillips,Midland,79.83,,,,,Single-ply,SBD,M
Boys,89.81,1,Trenton Jones,Plainview,85.73,208.65,136.08,195.04,539.77,Single-ply,SBD,M
Boys,89.81,2,Dalton Gray,Anton,87.54,222.26,108.86,206.38,537.51,Single-ply,SBD,M
Boys,89.81,3,Roy Flores,Levelland,87.36,192.78,131.54,195.04,519.36,Single-ply,SBD,M
Boys,89.81,4,Quenton Valentine,Plainview,87,213.19,111.13,190.51,514.83,Single-ply,SBD,M
Boys,89.81,5,Ethan Embry,Plainview,89.58,174.63,108.86,176.9,460.4,Single-ply,SBD,M
Boys,89.81,6,Luis Chavarria,Plainview,87.63,165.56,97.52,174.63,437.72,Single-ply,SBD,M
Boys,89.81,7,Cody Crabb,Slaton,85.91,151.95,97.52,181.44,430.91,Single-ply,SBD,M
Boys,89.81,8,Marciel Salinas,Slaton,86.27,151.95,88.45,183.7,424.11,Single-ply,SBD,M
Boys,89.81,9,Erick Young,Canyon Randall,89.54,147.42,122.47,154.22,424.11,Single-ply,SBD,M
Boys,99.79,10,David Camargo,Slaton,89.9,147.42,95.25,172.37,415.04,Single-ply,SBD,M
Boys,89.81,11,Zack Salazar,Levelland,83.1,142.88,102.06,151.95,396.89,Single-ply,SBD,M
Boys,89.81,12,Rosendo Hernandez,Amarillo Caprock,85.09,124.74,83.91,129.27,337.93,Single-ply,SBD,M
Boys,89.81,13,Caleb McDaniel,Wolfforth Frenship,82.74,113.4,72.57,129.27,315.25,Single-ply,SBD,M
Boys,89.81,14,Jarrod Zang,Canyon Randall,85,102.06,74.84,131.54,308.44,Single-ply,SBD,M
Boys,89.81,15,Jordan Hernandez,Wolfforth Frenship,85.91,120.2,74.84,111.13,306.17,Single-ply,SBD,M
Boys,89.81,DQ,Chris Huitron,Midland,83.55,129.27,90.72,133.81,,Single-ply,SBD,M
Boys,89.81,DQ,Arturo Hinojos,Midland,84.1,154.22,104.33,170.1,,Single-ply,SBD,M
Boys,89.81,DQ,Emilio Solis,Midland,87.36,174.63,,,,Single-ply,SBD,M
Boys,89.81,DQ,Braden Price,Levelland,84.01,,,,,Single-ply,SBD,M
Boys,99.79,1,Paul Ochoa,Levelland,96.16,233.6,145.15,206.38,585.13,Single-ply,SBD,M
Boys,99.79,2,Dannyk Ramos,Midland,96.16,244.94,131.54,206.38,582.87,Single-ply,SBD,M
Boys,99.79,3,Brendan Voss,Plainview,92.08,208.65,129.27,222.26,560.19,Single-ply,SBD,M
Boys,99.79,4,Javier Valdes,Midland,97.98,204.12,136.08,197.31,537.51,Single-ply,SBD,M
Boys,99.79,5,Cooper Meurer,Midland,99.52,204.12,124.74,183.7,512.56,Single-ply,SBD,M
Boys,99.79,6,Dillon Springer,Midland,97.25,181.44,120.2,190.51,492.15,Single-ply,SBD,M
Boys,99.79,7,Patrick Lee,Canyon Randall,90.99,158.76,102.06,226.8,487.61,Single-ply,SBD,M
Boys,99.79,8,Kalob Brumley,Canyon,96.43,181.44,106.59,197.31,485.34,Single-ply,SBD,M
Boys,99.79,9,Israel Rosalez,Seagraves,97.98,181.44,127.01,165.56,474,Single-ply,SBD,M
Boys,99.79,10,Adin Mizer,Canyon Randall,97.34,154.22,113.4,204.12,471.74,Single-ply,SBD,M
Boys,99.79,11,Ruiz Pardo,Hale Center,92.44,165.56,106.59,174.63,446.79,Single-ply,SBD,M
Boys,99.79,12,Austin Slayton,Canyon,98.88,154.22,99.79,163.29,417.3,Single-ply,SBD,M
Boys,99.79,13,Eric Vela,Canyon,95.35,154.22,102.06,158.76,415.04,Single-ply,SBD,M
Boys,99.79,14,Christian Rodriguez,Wolfforth Frenship,92.44,156.49,92.99,151.95,401.43,Single-ply,SBD,M
Boys,99.79,15,Matt Gauthier,Canyon,98.43,129.27,104.33,127.01,360.61,Single-ply,SBD,M
Boys,99.79,16,Jacob Piel,Wolfforth Frenship,95.8,124.74,83.91,149.69,358.34,Single-ply,SBD,M
Boys,99.79,17,Timmothy Basquez,Levelland,94.71,113.4,70.31,170.1,353.8,Single-ply,SBD,M
Boys,109.77,1,Matthew Cardenas,Wolfforth Frenship,103.42,219.99,138.35,190.51,548.85,Single-ply,SBD,M
Boys,109.77,2,Traver Vliem,Midland,101.51,179.17,111.13,210.92,501.22,Single-ply,SBD,M
Boys,109.77,3,Justin Sanchez,Midland,104.78,190.51,111.13,199.58,501.22,Single-ply,SBD,M
Boys,109.77,4,Paxton Heiting,Midland,100.24,170.1,129.27,199.58,498.95,Single-ply,SBD,M
Boys,109.77,5,Tj Basquez,Post,102.69,188.24,142.88,147.42,478.54,Single-ply,SBD,M
Boys,109.77,6,Hagan Kelly,Plainview,109.32,165.56,124.74,176.9,467.2,Single-ply,SBD,M
Boys,109.77,7,Zach Bailey,Canyon Randall,101.15,163.29,117.93,167.83,449.06,Single-ply,SBD,M
Boys,109.77,8,Reuben Tijerina,Levelland,106.68,102.06,52.16,113.4,267.62,Single-ply,SBD,M
Boys,109.77,DQ,Joseph Halloway,Hale Center,103.42,124.74,,158.76,,Single-ply,SBD,M
Boys,124.74,1,Erik Mendez,Plainview,115.12,272.16,149.69,244.94,666.78,Single-ply,SBD,M
Boys,124.74,2,Jacob Granado,Midland,121.56,249.48,129.27,235.87,614.62,Single-ply,SBD,M
Boys,124.74,3,Chris Thomas,Slaton,119.11,226.8,136.08,188.24,551.11,Single-ply,SBD,M
Boys,124.74,4,Marcus Smith,Amarillo Caprock,118.3,188.24,138.35,181.44,508.02,Single-ply,SBD,M
Boys,124.74,5,Tomas Vidales,Levelland,112.13,208.65,102.06,190.51,501.22,Single-ply,SBD,M
Boys,124.74,6,Marquise Nelson,Wolfforth Frenship,122.2,204.12,111.13,181.44,496.68,Single-ply,SBD,M
Boys,124.74,7,Trevor Vallejo,Canyon,111.67,145.15,102.06,163.29,410.5,Single-ply,SBD,M
Boys,124.74,8,Vincent Romero,Levelland,112.49,131.54,90.72,170.1,392.36,Single-ply,SBD,M
Boys,124.74,DQ,Vincent Mendoza,Wolfforth Frenship,124.56,,,,,Single-ply,SBD,M
Boys,124.74+,1,O'Shay Scott,Midland,126.37,215.46,124.74,226.8,566.99,Single-ply,SBD,M
Boys,124.74+,2,Dominick Puente,Levelland,138.98,226.8,140.61,197.31,564.72,Single-ply,SBD,M
Boys,124.74+,3,CJ Carrillo,Midland,144.42,179.17,142.88,204.12,526.17,Single-ply,SBD,M
Boys,124.74+,4,Jayme Murdock,Slaton,182.98,158.76,138.35,192.78,489.88,Single-ply,SBD,M
Boys,124.74+,5,Deven Ovalle,Amarillo Caprock,133.54,176.9,111.13,170.1,458.13,Single-ply,SBD,M
Boys,124.74+,6,Alexander Dimba,Wolfforth Frenship,215.46,192.78,102.06,158.76,453.59,Single-ply,SBD,M
Boys,124.74+,7,Marquis Zapata,Amarillo Caprock,134.26,136.08,102.06,145.15,383.29,Single-ply,SBD,M
Boys,124.74+,8,AJ Garcia,Slaton,162.3,131.54,104.33,124.74,360.61,Single-ply,SBD,M
