Name,BodyweightKg,WeightClassKg,Sex,Division,AgeRange,Best3SquatKg,Best3BenchKg,Best3DeadliftKg,TotalKg,Equipment,Event,Place
R. Langner,,53,F,F-O,,67.5,35,82.5,185,Single-ply,SBD,1
N. Hill,,58.5,F,F-O,,90,45,117.5,252.5,Single-ply,SBD,1
R. Crissy,,58.5,F,F-O,,77.5,52.5,92.5,222.5,Single-ply,SBD,2
C. Yalch,,63,F,F-O,,125,70,132.5,327.5,Single-ply,SBD,1
L. Henninger,,70,F,F-O,,115,85,125,325,Single-ply,SBD,1
W. Burns,,70,F,F-O,,117.5,55,137.5,310,Single-ply,SBD,2
K. Andrews,,70,F,F-O,,100,55,117.5,272.5,Single-ply,SBD,3
D. Frame,,70,F,F-O,,85,52.5,105,242.5,Single-ply,SBD,4
J. Repman,,80,F,F-O,,102.5,60,110,272.5,Single-ply,SBD,1
K. Macik,,56,M,M-T2,,100,60,135,295,Single-ply,SBD,1
D. Aguilar,,56,M,M-M1a,,100,85,142.5,327.5,Single-ply,SBD,1
K. Macik,,56,M,M-LT,,100,60,135,295,Single-ply,SBD,1
S. Snyder,,56,M,M-O,,167.5,100,187.5,455,Single-ply,SBD,1
K. Macik,,56,M,M-O,,100,60,135,295,Single-ply,SBD,2
B. O'Connell,,60,M,M-T2,,167.5,82.5,172.5,422.5,Single-ply,SBD,1
P. Gennaro,,60,M,M-LT,,157.5,90,192.5,440,Single-ply,SBD,1
P. Gennaro,,60,M,M-O,,157.5,90,192.5,440,Single-ply,SBD,1
B. O'Connell,,60,M,M-O,,167.5,82.5,172.5,422.5,Single-ply,SBD,2
F. Glass,,60,M,M-O,,155,67.5,182.5,405,Single-ply,SBD,3
C. Strohl,,67.5,M,M-T1,,122.5,82.5,135,340,Single-ply,SBD,1
R. Koch,,67.5,M,M-T2,,172.5,112.5,187.5,472.5,Single-ply,SBD,1
M. Reinheimer,,67.5,M,M-T2,,132.5,92.5,155,380,Single-ply,SBD,2
N. Theodorou,,67.5,M,M-M1a,,205,110,237.5,552.5,Single-ply,SBD,1
J. Schailey,,67.5,M,M-M1a,,202.5,137.5,205,545,Single-ply,SBD,2
J. Bonacci,,67.5,M,M-M2a,,172.5,110,182.5,465,Single-ply,SBD,1
P. Romanko,,67.5,M,M-LT,,175,117.5,215,507.5,Single-ply,SBD,1
M. Feingold,,67.5,M,M-LT,,145,107.5,152.5,405,Single-ply,SBD,2
M. Cagiola,,67.5,M,M-O,,227.5,152.5,217.5,597.5,Single-ply,SBD,1
B. Crowe,,67.5,M,M-O,,195,140,210,545,Single-ply,SBD,2
P. Romanko,,67.5,M,M-O,,175,117.5,215,507.5,Single-ply,SBD,4
R. Koch,,67.5,M,M-O,,172.5,112.5,187.5,472.5,Single-ply,SBD,5
B. Moss,,67.5,M,M-O,,155,110,202.5,467.5,Single-ply,SBD,6
M. Feingold,,67.5,M,M-O,,145,107.5,152.5,405,Single-ply,SBD,7
M. Reinheimer,,67.5,M,M-O,,132.5,92.5,155,380,Single-ply,SBD,8
C. Strohl,,67.5,M,M-O,,122.5,82.5,135,340,Single-ply,SBD,9
J. Guido,,67.5,M,M-SM,,217.5,127.5,212.5,557.5,Single-ply,SBD,1
C. Stires,,75,M,M-M1a,,242.5,160,250,652.5,Single-ply,SBD,1
D. Malkin,,75,M,M-M1b,,175,105,175,455,Single-ply,SBD,1
T. Anderson,,75,M,M-LT,,192.5,110,207.5,510,Single-ply,SBD,1
G. Foy,,75,M,M-LT,,182.5,120,202.5,505,Single-ply,SBD,2
S. Bianculli,,75,M,M-LT,,180,107.5,190,477.5,Single-ply,SBD,3
C. Jenkins,,75,M,M-O,,205,125,210,540,Single-ply,SBD,1
M. Malozi,,75,M,M-O,,200,117.5,217.5,535,Single-ply,SBD,2
T. Favata,,75,M,M-O,,182.5,130,220,532.5,Single-ply,SBD,3
T. Anderson,,67.5,M,M-O,,192.5,110,207.5,510,Single-ply,SBD,3
G. Foy,,75,M,M-O,,182.5,120,202.5,505,Single-ply,SBD,4
S. Bianculli,,75,M,M-O,,180,107.5,190,477.5,Single-ply,SBD,5
D. Malkin,,75,M,M-O,,175,105,175,455,Single-ply,SBD,6
F. Strohecker,,75,M,M-O,,115,82.5,137.5,335,Single-ply,SBD,7
E Steiner,,82.5,M,M-T2,,205,105,217.5,527.5,Single-ply,SBD,1
D. Barik,,82.5,M,M-M1a,,197.5,125,230,552.5,Single-ply,SBD,1
D. Debellis,,82.5,M,M-M1a,,165,102.5,192.5,460,Single-ply,SBD,2
D. Guyger,,82.5,M,M-M1b,,237.5,145,227.5,610,Single-ply,SBD,1
B. Hogan,,82.5,M,M-M1b,,182.5,112.5,212.5,507.5,Single-ply,SBD,2
R. Cianculli,,82.5,M,M-M2a,,92.5,80,115,287.5,Single-ply,SBD,1
A. Wurz,,82.5,M,M-M3a,,150,105,187.5,442.5,Single-ply,SBD,1
J. Brown,,82.5,M,M-LT,,242.5,167.5,220,630,Single-ply,SBD,1
B. Woolston,,82.5,M,M-LT,,227.5,152.5,245,625,Single-ply,SBD,2
T. Watkins,,82.5,M,M-LT,,227.5,187.5,207.5,622.5,Single-ply,SBD,3
D. Guyger,,82.5,M,M-LT,,237.5,145,227.5,610,Single-ply,SBD,4
D. Barik,,82.5,M,M-LT,,197.5,125,230,552.5,Single-ply,SBD,5
F. Streeper,,82.5,M,M-LT,,192.5,125,230,547.5,Single-ply,SBD,6
R. Cianculli,,82.5,M,M-LT,,92.5,80,115,287.5,Single-ply,SBD,7
C. Larocca,,82.5,M,M-O,,267.5,177.5,252.5,697.5,Single-ply,SBD,1
J. Brown,,82.5,M,M-O,,242.5,167.5,220,630,Single-ply,SBD,2
B. Woolston,,82.5,M,M-O,,227.5,152.5,245,625,Single-ply,SBD,3
T. Watkins,,82.5,M,M-O,,227.5,187.5,207.5,622.5,Single-ply,SBD,4
G. Branson,,82.5,M,M-O,,237.5,147.5,227.5,612.5,Single-ply,SBD,5
D. Guyger,,82.5,M,M-O,,237.5,145,227.5,610,Single-ply,SBD,6
D. Novracki,,82.5,M,M-O,,230,140,227.5,597.5,Single-ply,SBD,7
D. Barik,,82.5,M,M-O,,197.5,125,230,552.5,Single-ply,SBD,8
B. Gibbons,,82.5,M,M-O,,200,142.5,205,547.5,Single-ply,SBD,9
F. Streeper,,82.5,M,M-O,,192.5,125,230,547.5,Single-ply,SBD,10
E Steiner,,82.5,M,M-O,,205,105,217.5,527.5,Single-ply,SBD,11
G. Davis,,82.5,M,M-O,,180,122.5,220,522.5,Single-ply,SBD,12
J. Deering,,82.5,M,M-O,,125,95,142.5,362.5,Single-ply,SBD,13
D. Soliman,,90,M,M-T2,,205,115,227.5,547.5,Single-ply,SBD,1
C. Lakatosh,,90,M,M-T2,,192.5,110,212.5,515,Single-ply,SBD,2
S. Mann,,90,M,M-T3,,250,147.5,237.5,635,Single-ply,SBD,1
B. Ludwig,,90,M,M-SM,,275,165,257.5,697.5,Single-ply,SBD,1
T. Smoyer,,90,M,M-SM,,190,160,185,535,Single-ply,SBD,2
F. Fino,,90,M,M-SM,,192.5,125,192.5,510,Single-ply,SBD,3
R. Jenness,,90,M,M-M1a,,267.5,202.5,252.5,722.5,Single-ply,SBD,1
S. Zerbe,,90,M,M-M1b,,185,150,227.5,562.5,Single-ply,SBD,1
B. Lutty,,90,M,M-M2a,,240,125,232.5,597.5,Single-ply,SBD,1
R. Jenness,,90,M,M-LT,,267.5,202.5,252.5,722.5,Single-ply,SBD,1
D. Warburton,,90,M,M-LT,,260,155,237.5,652.5,Single-ply,SBD,2
L. Peck,,90,M,M-LT,,237.5,135,207.5,580,Single-ply,SBD,3
J. Ernst,,90,M,M-LT,,212.5,135,207.5,555,Single-ply,SBD,4
M. Moran,,90,M,M-O,,272.5,202.5,252.5,727.5,Single-ply,SBD,1
R. Jenness,,90,M,M-O,,267.5,202.5,252.5,722.5,Single-ply,SBD,2
G. Shaw,,90,M,M-O,,272.5,170,240,682.5,Single-ply,SBD,3
D. Warburton,,90,M,M-O,,260,155,237.5,652.5,Single-ply,SBD,4
D. Teets,,90,M,M-O,,262.5,155,230,647.5,Single-ply,SBD,5
L. Peck,,90,M,M-O,,237.5,135,207.5,580,Single-ply,SBD,8
S. Mann,,90,M,M-O,,250,147.5,237.5,635,Single-ply,SBD,6
T. Repman,,90,M,M-O,,220,140,250,610,Single-ply,SBD,7
L. Totani,,90,M,M-O,,207.5,140,217.5,565,Single-ply,SBD,9
D. Lewis #3,,90,M,M-O,,192.5,152.5,215,560,Single-ply,SBD,10
J. Ernst,,90,M,M-O,,212.5,135,207.5,555,Single-ply,SBD,11
D. Soliman,,90,M,M-O,,205,115,227.5,547.5,Single-ply,SBD,12
C. Lakatosh,,90,M,M-O,,192.5,110,212.5,515,Single-ply,SBD,13
A. Reihner,,100,M,M-T1,,140,70,170,380,Single-ply,SBD,1
J. Michaels,,100,M,M-M1b,,182.5,120,222.5,525,Single-ply,SBD,1
A. Simmons,,100,M,M-LT,,295,185,317.5,797.5,Single-ply,SBD,1
R. Kleppinger,,100,M,M-LT,,230,150,247.5,627.5,Single-ply,SBD,2
J. Hirsch,,100,M,M-LT,,215,177.5,215,607.5,Single-ply,SBD,3
J. Wilgus,,100,M,M-LT,,230,140,230,600,Single-ply,SBD,4
E. Trombetti,,100,M,M-LT,,195,142.5,245,582.5,Single-ply,SBD,5
W. Croner,,100,M,M-O,,332.5,205,282.5,820,Single-ply,SBD,1
A. Simmons,,100,M,M-O,,295,185,317.5,797.5,Single-ply,SBD,2
A. Schleich,,100,M,M-O,,322.5,182.5,265,770,Single-ply,SBD,3
E. Barr,,100,M,M-O,,250,170,287.5,707.5,Single-ply,SBD,4
M. Shirey,,100,M,M-O,,277.5,162.5,260,700,Single-ply,SBD,5
J. Rizzuto,,100,M,M-O,,282.5,157.5,242.5,682.5,Single-ply,SBD,6
R. Henry,,100,M,M-O,,262.5,165,237.5,665,Single-ply,SBD,7
P. Johnson,,100,M,M-O,,250,160,245,655,Single-ply,SBD,8
D. Messenger,,100,M,M-O,,265,145,240,650,Single-ply,SBD,9
R. Kleppinger,,100,M,M-O,,230,150,247.5,627.5,Single-ply,SBD,10
J. Hirsch,,100,M,M-O,,215,177.5,215,607.5,Single-ply,SBD,11
J. Wilgus,,100,M,M-O,,230,140,230,600,Single-ply,SBD,12
E. Trombetti,,100,M,M-O,,195,142.5,245,582.5,Single-ply,SBD,13
R. Pellowitz,,100,M,M-O,,190,155,212.5,557.5,Single-ply,SBD,14
A. Reihner,,100,M,M-O,,140,70,170,380,Single-ply,SBD,15
J. Butler,,110,M,M-T1,,230,140,205,575,Single-ply,SBD,1
D. Csaszar,,110,M,M-T3,,272.5,132.5,210,615,Single-ply,SBD,1
B. Shay,,110,M,M-M1a,,227.5,172.5,215,615,Single-ply,SBD,1
P. Simpson,,110,M,M-M1a,,227.5,150,227.5,605,Single-ply,SBD,2
D. Robinson,,110,M,M-LT,,295,202.5,310,807.5,Single-ply,SBD,1
S. Michaud,,110,M,M-LT,,287.5,192.5,245,725,Single-ply,SBD,2
P. Simpson,,110,M,M-LT,,227.5,150,227.5,605,Single-ply,SBD,3
J. Michaud,,110,M,M-LT,,207.5,142.5,250,600,Single-ply,SBD,4
D. Robinson,,110,M,M-O,,295,202.5,310,807.5,Single-ply,SBD,1
D. Shiffer,,110,M,M-O,,320,205,282.5,807.5,Single-ply,SBD,2
P. Andrews,,110,M,M-O,,285,195,300,780,Single-ply,SBD,3
K. Moore,,110,M,M-O,,255,205,277.5,737.5,Single-ply,SBD,4
S. Michaud,,110,M,M-O,,287.5,192.5,245,725,Single-ply,SBD,5
D. Fonio,,110,M,M-O,,272.5,170,272.5,715,Single-ply,SBD,6
D. Csaszar,,110,M,M-O,,272.5,132.5,210,615,Single-ply,SBD,7
P. Simpson,,110,M,M-O,,227.5,150,227.5,605,Single-ply,SBD,8
J. Michaud,,110,M,M-O,,207.5,142.5,250,600,Single-ply,SBD,9
J. Butler,,110,M,M-O,,230,140,205,575,Single-ply,SBD,10
J. Spellane,,125,M,M-M2b,,140,160,182.5,482.5,Single-ply,SBD,1
C. Eckroth,,125,M,M-LT,,272.5,150,250,672.5,Single-ply,SBD,1
J. Spellane,,125,M,M-LT,,140,160,182.5,482.5,Single-ply,SBD,2
S. Cosgrove,,125,M,M-O,,295,150,265,710,Single-ply,SBD,1
C. Eckroth,,125,M,M-O,,272.5,150,250,672.5,Single-ply,SBD,2
D. Snider,,125,M,M-O,,250,150,255,655,Single-ply,SBD,3
J. Spellane,,125,M,M-O,,140,160,182.5,482.5,Single-ply,SBD,4
C. Partsch,,125,M,M-O,,137.5,117.5,167.5,422.5,Single-ply,SBD,5
T. Donlin,,140+,M,M-T3,,142.5,117.5,167.5,427.5,Single-ply,SBD,1
D Hulslander,,140+,M,M-O,,265,210,272.5,747.5,Single-ply,SBD,1
T. Donlin,,140+,M,M-O,,142.5,117.5,167.5,427.5,Single-ply,SBD,2
