Place,Name,Division,BodyweightKg,Squat1Kg,Squat2Kg,Squat3Kg,Best3SquatKg,Bench1Kg,Bench2Kg,Bench3Kg,Best3BenchKg,Deadlift1Kg,Deadlift2Kg,Deadlift3Kg,Best3DeadliftKg,TotalKg,WeightClassKg,Sex,CyrillicName,BirthYear,Equipment,Event,Tested,Country,Deadlift4Kg
1,Nikita Arkhipov,Pro Teen 16-17,60.6,-120,130,135,135,75,-80,80,80,160,170,175,175,390,67.5,M,Никита Архипов,1998,Raw,SBD,,,
1,Aram Grigoryan,Pro Open,79.6,-180,-180,190,190,130,-140,-140,130,240,260,-270,260,580,82.5,M,Арам Григорян,1989,Raw,SBD,,,
1,Aleksandr Zinovyev,Pro Open,86.9,210,-220,220,220,155,165,175,175,220,235,252.5,252.5,647.5,90,M,Александр Зиновьев,1985,Raw,SBD,,,
DQ,Yuriy Nekhaev,Pro Open,86.5,,,,,,,,,,,,,,90,M,Юрий Нехаев,1981,Raw,SBD,,,
DQ,Yuriy Pavlov #1,Pro Masters 40-44,83.6,-150,,150,150,120,130,140,140,,,,,,90,M,Юрий Павлов,1972,Raw,SBD,,,
DQ,Vasiliy Kuzovatov,Pro Masters 50-54,87.9,,,,,,,,,,,,,,90,M,Василий Кузоватов,1963,Raw,SBD,,,
1,Dmitriy Bogdanov,Pro Juniors 20-23,97.8,260,270,-275,270,185,-190,-190,185,270,-285,-300.5,270,725,100,M,Дмитрий Богданов,1992,Raw,SBD,,,
DQ,Vladimir Kulgin,Pro Open,98.3,-180,180,-205,180,-155,-160,-160,,,,,,,100,M,Владимир Кульгин,1988,Raw,SBD,,,
2,Marat Savosin,Pro Open,110,285,295.5,300,300,195,-205,205,205,270,285,-292.5,285,790,110,M,Марат Савосин,1990,Raw,SBD,,,
DQ,Aleksey Gorbonosov,Pro Open,101.7,,,,,,,,,,,,,,110,M,Алексей Горбоносов,1985,Raw,SBD,,,
DQ,Sergey Ustinov,Pro Open,118.4,,,,,,,,,,,,,,125,M,Сергей Устинов,1988,Raw,SBD,,,
1,Aleksandr Pirogov #2,Pro Open,141.2,335,350,,350,230,240,-250,240,280,310,325,325,915,140+,M,Александр Пирогов,1984,Raw,SBD,,,
1,Aleksandr Nosov,Pro Open,96.7,,,270,270,,,205,205,,,265,265,740,100,M,Александр Носов,1985,Multi-ply,SBD,,,
1,Sergey Kirilin,Pro Open,110,-270,-270,270,270,-230,240,,240,-250,-250,250,250,760,110,M,Сергей Кирилин,1985,Single-ply,SBD,,,
1,Elena Sorokina,Pro Open,43.9,,,,,52.5,55,57.5,57.5,,,,,57.5,44,F,Елена Сорокина,1985,Raw,B,,,
1,Viktoriya Klementyeva,Pro Juniors 20-23,50.9,,,,,57.5,62.5,65,65,,,,,65,52,F,Виктория Клементьева,1994,Raw,B,,,
1,Natalya Royanova,Pro Open,50.5,,,,,40,-45,-45,40,,,,,40,52,F,Наталья Роянова,1979,Raw,B,,,
2,Vera Strelkova,Pro Open,50.8,,,,,30,32.5,35,35,,,,,35,52,F,Вера Стрелкова,1985,Raw,B,,,
1,Alena Belozerova,Pro Open,58.8,,,,,52.5,-55,-55,52.5,,,,,52.5,60,F,Алена Белозерова,1986,Raw,B,,,
DQ,Irina Zakatchenko,Pro Open,66.4,,,,,,,,,,,,,,67.5,F,Ирина Закатченко,1984,Raw,B,,,
DQ,Nikolay Gagulin,Pro Open,73.1,,,,,,,,,,,,,,75,M,Николай Гагулин,1990,Raw,B,,,
1,Fedor Yudin,Pro Teen 16-17,80.5,,,,,95,100,105,105,,,,,105,82.5,M,Федор Юдин,1997,Raw,B,,,
4,Dmitriy Glukhov,Pro Open,80.9,,,,,170,-172.5,-172.5,170,,,,,170,82.5,M,Дмитрий Глухов,1989,Raw,B,,,
5,Maksim Grekov,Pro Open,81,,,,,160,165,170,170,,,,,170,82.5,M,Максим Греков,1985,Raw,B,,,
DQ,Sergey Gromov,Pro Open,77.6,,,,,,,,,,,,,,82.5,M,Сергей Громов,1987,Raw,B,,,
DQ,Andrey Surovikov,Pro Open,80.5,,,,,,,,,,,,,,82.5,M,Андрей Суровиков,1986,Raw,B,,,
DQ,Yuriy Kuzovatov,Pro Open,80.6,,,,,,,,,,,,,,82.5,M,Юрий Кузоватов,1985,Raw,B,,,
DQ,Aleksey Smirnov,Pro Open,82.2,,,,,,,,,,,,,,82.5,M,Алексей Смирнов,1987,Raw,B,,,
DQ,Dmitriy Ivanov #16,Pro Teen 16-17,85.6,,,,,,,,,,,,,,90,M,Дмитрий Иванов,1997,Raw,B,,,
DQ,Vitaliy Chudaykin,Pro Juniors 20-23,89.8,,,,,-150,-150,,,,,,,,90,M,Виталий Чудайкин,1991,Raw,B,,,
2,Konstantin Gruzdev,Pro Open,87.2,,,,,-170,-180,180,180,,,,,180,90,M,Константин Груздев,1977,Raw,B,,,
5,Andrey Usachev,Pro Open,89,,,,,180,-185,-185,180,,,,,180,90,M,Андрей Усачев,1982,Raw,B,,,
1,Dmitriy Lebedev,Pro Open,86,,,,,150,160,165,165,,,,,165,90,M,Дмитрий Лебедев,1988,Raw,B,,,
DQ,Aleksey Nikolaenko,Pro Open,87.5,,,,,,,,,,,,,,90,M,Алексей Николаенко,1989,Raw,B,,,
DQ,Evgeniy Bulakhov,Pro Open,88,,,,,,,,,,,,,,90,M,Евгений Булахов,1985,Raw,B,,,
DQ,Aleksandr Ivanov,Pro Open,89.1,,,,,-165,,,,,,,,,90,M,Александр Иванов,1975,Raw,B,,,
1,Yuriy Pavlov #1,Pro Masters 40-44,83.6,,,,,120,130,140,140,,,,,140,90,M,Юрий Павлов,1972,Raw,B,,,
1,Sergey Goncharov,Pro Masters 60-64,85.6,,,,,120,125,130,130,,,,,130,90,M,Сергей Гончаров,1952,Raw,B,,,
DQ,Oleg Zolotov,Pro Teen 16-17,94.2,,,,,,,,,,,,,,100,M,Олег Золотов,1997,Raw,B,,,
1,Denis Mochalovskiy,Pro Open,96.6,,,,,180,-190,190,190,,,,,190,100,M,Денис Мочаловский,1984,Raw,B,,,
3,Vladimir Dmitriev,Pro Open,98.5,,,,,190,-200,-200,190,,,,,190,100,M,Владимир Дмитриев,1979,Raw,B,,,
2,Denis Borisov,Pro Open,97.8,,,,,170,-180,180,180,,,,,180,100,M,Денис Борисов,1977,Raw,B,,,
1,Gennadiy Obmelyukhin,Pro Masters 65-69,91.8,,,,,107.5,115,117.5,117.5,,,,,117.5,100,M,Геннадий Обмелюхин,1948,Raw,B,,,
DQ,Anton Mishkevich,Pro Open,102.6,,,,,,,,,,,,,,110,M,,1986,Raw,B,,,
DQ,Aleksandr Savitskiy,Pro Open,106.8,,,,,,,,,,,,,,110,M,Александр Савицкий,1986,Raw,B,,,
DQ,Aleksandr Dmitriev,Pro Masters 45-49,100.6,,,,,,,,,,,,,,110,M,Александр Дмитриев,1964,Raw,B,,,
1,Oleg Sazonov,Pro Open,115.3,,,,,205,210,215,215,,,,,215,125,M,Олег Сазонов,1981,Raw,B,,,
2,Grigoriy Sakharov,Pro Open,121.9,,,,,200,207.5,212.5,212.5,,,,,212.5,125,M,Григорий Сахаров,1977,Raw,B,,,
3,Viktor Krylov,Pro Open,125,,,,,200,210,-215,210,,,,,210,125,M,Виктор Крылов,1985,Raw,B,,,
DQ,Andrey Bereznikov,Pro Open,115.7,,,,,,,,,,,,,,125,M,Андрей Березников,1978,Raw,B,,,
DQ,Sergey Kondratinskiy,Pro Open,121.2,,,,,,,,,,,,,,125,M,Сергей Кондратинский,1984,Raw,B,,,
1,Vadim Pchelkin,Pro Masters 40-44,118.4,,,,,190,200,205,205,,,,,205,125,M,Вадим Пчелкин,1971,Raw,B,,,
1,Dmitriy Zaytsev,Pro Open,84.2,,,,,150,157.5,-160,157.5,,,,,157.5,90,M,Дмитрий Зайцев,1981,Multi-ply,B,,,
2,Andrey Konopelchev,Pro Open,89.2,,,,,140,150,155,155,,,,,155,90,M,Андрей Конопельчев,1983,Multi-ply,B,,,
1,Sergey Goncharov,Pro Masters 60-64,85.6,,,,,130,140,-145,140,,,,,140,90,M,Сергей Гончаров,1952,Multi-ply,B,,,
1,Oleg Loktionov,Pro Open,96.9,,,,,220,230,-240,230,,,,,230,100,M,Олег Локтионов,1977,Multi-ply,B,,,
DQ,Sergey Savchuk,Pro Masters 40-44,99.3,,,,,-195,-205,-205,,,,,,,100,M,Сергей Савчук,1973,Multi-ply,B,,,
DQ,Roman Brekhov,Pro Open,107.7,,,,,-270,-280,-290,,,,,,,110,M,Роман Брехов,1990,Multi-ply,B,,,
1,Oleg Mironov,Pro Masters 40-44,100.6,,,,,130,150,-170,150,,,,,150,110,M,Олег Миронов,1973,Multi-ply,B,,,
DQ,Mariya Kolyadina,Pro Teen 18-19,56,,,,,,,,,,,,,,56,F,Мария Колядина,1995,Raw,D,,,
DQ,Liliya Akhmadullina,Pro Open,59,,,,,,,,,,,,,,60,F,Лилия Ахмадуллина,1986,Raw,D,,,
DQ,Nikolay Gagulin,Pro Open,73.1,,,,,,,,,,,,,,75,M,Николай Гагулин,1990,Raw,D,,,
3,Aleksandr Potapov,Pro Open,88,,,,,,,,,235,245,255,255,255,90,M,Александр Потапов,1985,Raw,D,,,
2,Sergey Ilyukhin,Pro Open,85.8,,,,,,,,,220,-240,-240,220,220,90,M,Сергей Илюхин,1981,Raw,D,,,
1,Dmitriy Zaytsev,Pro Open,84.2,,,,,,,,,165,175,180,180,180,90,M,Дмитрий Зайцев,1981,Raw,D,,,
1,Yuriy Pavlov #1,Pro Masters 40-44,83.6,,,,,,,,,108,,,108,108,90,M,Юрий Павлов,1972,Raw,D,,,
2,Nikolay Ponomarev,Pro Open,94.3,,,,,,,,,235,250,265,265,265,100,M,Николай Пономарев,1981,Raw,D,,,
1,Dmitriy Chuzhakov,Pro Open,91.5,,,,,,,,,-230,-230,230,230,230,100,M,Дмитрий Чужаков,1989,Raw,D,,,
DQ,Boris Koloskov,Pro Open,94.7,,,,,,,,,,,,,,100,M,Борис Колосков,1986,Raw,D,,,
1,Aleksey Smirnov,Pro Open,102.7,,,,,,,,,260,270,280,280,280,110,M,Алексей Смирнов,1977,Raw,D,,,
1,Roman Korshunov,Pro Open,73.9,,,,,,,,,200,207.5,-215,207.5,207.5,75,M,Роман Коршунов,1980,Single-ply,D,,,
1,Andrey Konopelchev,Pro Open,89.2,,,,,,,,,-160,-160,160,160,160,90,M,Андрей Конопельчев,1983,Single-ply,D,,,
1,Mikhail Grinko,Pro Open,108.1,,,,,,,,,265,280,,280,280,110,M,Михаил Гринько,1978,Single-ply,D,,,
DQ,Anna Savchuk,Amateur Open,43.20,-75.0,-77.5,77.5,77.5,-52.5,-52.5,-52.6,,,,,,,44,F,Анна Савчук,1984,Raw,SBD,Yes,Russia,
1,Zhanna Sharshenova,Amateur Juniors 20-23,45.70,60.0,65.0,-70.0,65.0,35.0,-43.0,-43.0,35.0,60.0,67.5,72.5,72.5,172.5,48,F,Жанна Шаршенова,1993,Raw,SBD,Yes,Russia,
1,Anna Meshkova,Amateur Open,51.70,95.0,97.5,100.0,100.0,45.0,47.5,-50.0,47.5,-95.0,97.5,105.0,105.0,252.5,52,F,Анна Мешкова,1986,Raw,SBD,Yes,Russia,
1,Anna Ratnikova,Amateur Open,55.60,-75.0,75.0,-80.0,75.0,50.0,-52.5,-52.5,50.0,-95.0,95.0,-102.5,95.0,220.0,56,F,Анна Ратникова,1982,Raw,SBD,Yes,Russia,
1,Lyubov Terekhova,Amateur Open,58.20,95.0,110.0,-117.5,110.0,50.0,55.0,-57.5,55.0,120.0,130.0,137.5,137.5,302.5,60,F,Любовь Терехова,1980,Raw,SBD,Yes,Russia,
2,Oksana Petrakova,Amateur Open,60.00,95.0,100.0,105.0,105.0,60.0,65.0,-67.5,65.0,115.0,125.0,132.5,132.5,302.5,60,F,Оксана Петракова,1984,Raw,SBD,Yes,Russia,
1,Valeriya Kalaeva,Amateur Juniors 20-23,64.60,-115.0,115.0,120.0,120.0,-72.5,75.0,-77.5,75.0,130.0,-137.5,-137.5,130.0,325.0,67.5,F,Валерия Калаева,1990,Raw,SBD,Yes,Russia,
1,Natalya Kroshkina,Amateur Open,66.20,60.0,65.0,70.0,70.0,40.0,-47.5,47.5,47.5,80.0,85.0,-90.0,85.0,202.5,67.5,F,Наталья Крошкина,1988,Raw,SBD,Yes,Russia,
1,Oksana Novikova,Amateur Open,74.40,100.0,105.0,110.0,110.0,60.0,65.0,-70.0,65.0,110.0,120.0,130.0,130.0,305.0,75,F,Оксана Новикова,1984,Raw,SBD,Yes,Russia,
2,Ekaterina Shaeva,Amateur Open,73.70,-95.0,95.0,102.5,102.5,50.0,55.0,-57.5,55.0,120.0,-125.0,127.5,127.5,285.0,75,F,Екатерина Шаева,1985,Raw,SBD,Yes,Russia,
3,Elena Davydova,Amateur Open,73.90,95.0,100.0,-102.5,100.0,60.0,-62.5,,60.0,120.0,125.0,-130.0,125.0,285.0,75,F,Елена Давыдова,1973,Raw,SBD,Yes,Russia,
DQ,Anna Shaykhutdinova,Amateur Open,80.20,-115.0,-115.0,-115.0,,,,,,,,,,,82.5,F,Анна Шайхутдинова,1986,Raw,SBD,Yes,Russia,
1,Nikolay Starykh,Amateur Juniors 20-23,59.70,110.0,-120.0,130.0,130.0,80.0,90.0,-97.5,90.0,130.0,150.0,-175.0,150.0,370.0,60,M,Николай Старых,1992,Raw,SBD,Yes,Russia,
1,Vladimir Panyutin,Amateur Teen 16-17,61.50,140.0,145.0,152.5,152.5,102.5,107.5,-112.5,107.5,-160.0,165.0,172.5,172.5,432.5,67.5,M,Владимир Панютин,1997,Raw,SBD,Yes,Russia,
DQ,Evgeniy Kostyunkov,Amateur Juniors 20-23,66.40,-150.0,-150.0,-150.0,,,,,,,,,,,67.5,M,Евгений Костюньков,1993,Raw,SBD,Yes,Russia,
1,Vasiliy Olari,Amateur Juniors 20-23,73.20,120.0,,135.0,135.0,100.0,-107.5,-107.5,100.0,160.0,175.0,-190.0,175.0,410.0,75,M,,1994,Raw,SBD,Yes,Russia,
1,Aleksey Yushin,Amateur Open,72.70,155.0,162.5,167.5,167.5,140.0,-145.0,145.0,145.0,185.0,195.0,,195.0,507.5,75,M,Алексей Юшин,1982,Raw,SBD,Yes,Russia,
2,Nikita Korolev,Amateur Open,73.30,140.0,-150.0,150.0,150.0,115.0,125.0,-130.0,125.0,150.0,-180.0,-180.0,150.0,425.0,75,M,Никита Королев,1989,Raw,SBD,Yes,Russia,
3,Egor Baranov,Amateur Open,71.20,125.0,130.0,-140.0,130.0,85.0,-90.0,90.0,90.0,150.0,160.0,-170.0,160.0,380.0,75,M,Егор Баранов,1987,Raw,SBD,Yes,Russia,
4,Mikhail Kostikov,Amateur Open,74.00,115.0,-120.0,-120.0,115.0,82.5,87.5,92.5,92.5,145.0,-155.0,-155.0,145.0,352.5,75,M,Михаил Костиков,1975,Raw,SBD,Yes,Russia,
1,Maksim Amanatov,Amateur Juniors 20-23,77.30,150.0,170.0,185.0,185.0,115.0,-125.0,-125.0,115.0,230.0,250.0,,250.0,550.0,82.5,M,Максим Аманатов,1990,Raw,SBD,Yes,Russia,
2,Nikita Manuylov,Amateur Juniors 20-23,80.70,160.0,180.0,190.0,190.0,100.0,110.0,-115.0,110.0,-180.0,,180.0,180.0,480.0,82.5,M,Никита Мануйлов,1993,Raw,SBD,Yes,Russia,
1,Vasiliy Perov,Amateur Open,81.60,190.0,205.0,217.5,217.5,140.0,150.0,-160.0,150.0,240.0,255.0,-262.5,255.0,622.5,82.5,M,Василий Перов,1979,Raw,SBD,Yes,Russia,
2,Kirill Osherov,Amateur Open,81.20,-155.0,165.0,-175.0,165.0,120.0,-130.0,-130.0,120.0,170.0,180.0,190.0,190.0,475.0,82.5,M,Кирилл Ошеров,1990,Raw,SBD,Yes,Russia,
3,Mikhail Tarasov,Amateur Open,81.70,130.0,-140.0,140.0,140.0,110.0,115.0,-117.5,115.0,150.0,160.0,-170.0,160.0,415.0,82.5,M,Михаил Тарасов,1988,Raw,SBD,Yes,Russia,
4,Vladimir Kulakov,Amateur Open,76.30,95.0,102.5,107.5,107.5,90.0,95.0,-97.5,95.0,115.0,127.5,,127.5,330.0,82.5,M,Владимир Кулаков,1955,Raw,SBD,Yes,Russia,
DQ,Ilya Smolyakov,Amateur Open,76.30,-110.0,-130.0,-160.0,,,,,,,,,,,82.5,M,Илья Смоляков,1995,Raw,SBD,Yes,Russia,
1,Vladimir Kulakov,Amateur Masters 55-59,76.30,95.0,102.5,107.5,107.5,90.0,95.0,-97.5,95.0,115.0,127.5,,127.5,330.0,82.5,M,Владимир Кулаков,1955,Raw,SBD,Yes,Russia,
1,Gleb Brailko,Amateur Juniors 20-23,87.60,185.0,192.5,195.0,195.0,135.0,-137.5,,135.0,155.0,190.0,205.0,205.0,535.0,90,M,Глеб Браилко,1991,Raw,SBD,Yes,Russia,
DQ,Kirill Vedeneev,Amateur Juniors 20-23,88.50,-180.0,-180.0,-180.0,,,,,,,,,,,90,M,Кирилл Веденеев,1991,Raw,SBD,Yes,Russia,
1,Aleksey Kuznetsov,Amateur Open,85.90,200.0,210.0,-215.0,210.0,155.0,-165.0,167.5,167.5,250.0,262.5,270.0,270.0,647.5,90,M,Алексей Кузнецов,1980,Raw,SBD,Yes,Russia,
2,Dmitriy Pavlov,Amateur Open,85.40,210.0,,-217.5,210.0,157.5,-165.0,165.0,165.0,250.0,262.5,-270.0,262.5,637.5,90,M,Дмитрий Павлов,1991,Raw,SBD,Yes,Russia,
3,Sergey Lukinov,Amateur Open,89.70,-190.0,200.0,215.0,215.0,135.0,145.0,152.5,152.5,200.0,220.0,237.5,237.5,605.0,90,M,Сергей Лукинов,1988,Raw,SBD,Yes,Russia,
4,Anatoliy Nikiforov,Amateur Open,89.30,175.0,185.0,-195.0,185.0,130.0,-137.5,-137.5,130.0,195.0,210.0,-222.5,210.0,525.0,90,M,Анатолий Никифоров,1982,Raw,SBD,Yes,Russia,
5,Alexander Vorobyev,Amateur Open,86.60,-130.0,130.0,140.0,140.0,150.0,155.0,157.5,157.5,160.0,,,160.0,457.5,90,M,Александр Воробьев,1967,Raw,SBD,Yes,Russia,
1,Evgeniy Vladimirov,Amateur Masters 45-49,89.40,-210.0,-210.0,210.0,210.0,-135.0,135.0,-140.0,135.0,200.0,210.0,-220.0,210.0,555.0,90,M,Евгений Владимиров,1964,Raw,SBD,Yes,Russia,
2,Alexander Vorobyev,Amateur Masters 45-49,86.60,-130.0,130.0,140.0,140.0,150.0,155.0,157.5,157.5,160.0,,,160.0,457.5,90,M,Александр Воробьев,1967,Raw,SBD,Yes,Russia,
1,Aleksey Gavrilov,Amateur Juniors 20-23,100.00,160.0,170.0,,170.0,107.5,112.5,,112.5,190.0,200.0,-210.0,200.0,482.5,100,M,Алексей Гаврилов,1992,Raw,SBD,Yes,Russia,
1,Aleksandr Drozdov,Amateur Open,97.00,190.0,200.0,-210.0,200.0,140.0,-150.0,,140.0,230.0,-240.0,,230.0,570.0,100,M,Александр Дроздов,1980,Raw,SBD,Yes,Russia,
DQ,Aleksey Popov #12,Amateur Masters 45-49,99.80,-180.0,,,,,,,,,,,,,100,M,,1968,Raw,SBD,Yes,Russia,
1,Mikhail Rubtsov,Amateur Open,100.60,170.0,180.0,185.0,185.0,130.0,-145.0,145.0,145.0,200.0,210.0,-215.0,210.0,540.0,110,M,Михаил Рубцов,1974,Raw,SBD,Yes,Russia,
2,Vladimir Severov,Amateur Open,101.50,155.0,165.0,,165.0,145.0,-152.5,,145.0,215.0,-225.0,-230.0,215.0,525.0,110,M,Владимир Северов,1979,Raw,SBD,Yes,Russia,
3,Aleksey Averyanov,Amateur Open,101.20,185.0,,-210.0,185.0,115.0,-125.0,-125.0,115.0,220.0,-230.0,-237.5,220.0,520.0,110,M,Алексей Аверьянов,1993,Raw,SBD,Yes,Russia,
1,Vladimir Kulakov,Amateur Open,76.30,110.0,,,110.0,85.0,,,85.0,115.0,,,115.0,310.0,82.5,M,Владимир Кулаков,1955,Single-ply,SBD,Yes,Russia,
1,Vladimir Kulakov,Amateur Masters 55-59,76.30,110.0,,,110.0,85.0,,,85.0,115.0,,,115.0,310.0,82.5,M,Владимир Кулаков,1955,Single-ply,SBD,Yes,Russia,
1,Anton Kiryushkin,Amateur Open,105.20,220.0,240.0,250.0,250.0,140.0,150.0,155.0,155.0,220.0,-230.0,-230.0,220.0,625.0,110,M,Антон Кирюшкин,1983,Single-ply,SBD,Yes,Russia,
DQ,Maksim Tovstonog,Amateur Open,74.30,,,,,,,,,,,,,,75,M,Максим Товстоног,1983,Multi-ply,SBD,Yes,Russia,
1,Aleksey Petrov,Amateur Open,73.30,,,,,,,,,190.0,-200.0,,190.0,190.0,75,M,Алексей Петров,1978,Multi-ply,D,Yes,Russia,
1,Andrey Konovalenko,Amateur Open,89.60,,,,,,,,,220.0,230.0,240.0,240.0,240.0,90,M,Андрей Коноваленко,1982,Multi-ply,D,Yes,Russia,
1,Sergey Kovalchuk,Amateur Open,97.30,,,,,,,,,-250.0,250.0,-270.0,250.0,250.0,100,M,Сергей Ковальчук,1986,Multi-ply,D,Yes,Russia,
1,Aleksandra Chizh,Amateur Juniors 20-23,52.00,,,,,,,,,-115.0,,115.0,115.0,115.0,52,F,Александра Чиж,1992,Raw,D,Yes,Russia,
1,Kristina Chudnova,Amateur Teen 18-19,54.50,,,,,,,,,117.5,125.0,-130.0,125.0,125.0,56,F,Кристина Чуднова,1994,Raw,D,Yes,Russia,
1,Kseniya Yakovleva,Amateur Juniors 20-23,53.40,,,,,,,,,90.0,100.0,105.0,105.0,105.0,56,F,Ксения Яковлева,1992,Raw,D,Yes,Russia,
1,Yuliya Rogozhina,Amateur Open,56.00,,,,,,,,,92.5,100.0,107.5,107.5,107.5,56,F,Юлия Рогожина,1991,Raw,D,Yes,Russia,
2,Tatyana Sakhnova,Amateur Open,54.50,,,,,,,,,85.0,92.5,-95.0,92.5,92.5,56,F,Татьяна Сахнова,1980,Raw,D,Yes,Russia,
1,Olga Tikhonova,Amateur Open,59.00,,,,,,,,,100.0,110.0,115.0,115.0,115.0,60,F,Ольга Тихонова,1988,Raw,D,Yes,Russia,
1,Natalya Kroshkina,Amateur Open,66.20,,,,,,,,,80.0,85.0,-95.0,85.0,85.0,67.5,F,Наталья Крошкина,1988,Raw,D,Yes,Russia,
1,Margarita Kashirina,Amateur Juniors 20-23,71.70,,,,,,,,,145.0,-160.0,,145.0,145.0,75,F,Маргарита Каширина,1992,Raw,D,Yes,Russia,
1,Elena Terekhova,Amateur Open,72.90,,,,,,,,,115.0,125.0,-130.0,125.0,125.0,75,F,Елена Терехова,1987,Raw,D,Yes,Russia,
1,Alla Pugovkina,Amateur Open,81.20,,,,,,,,,165.0,170.0,-175.0,170.0,170.0,82.5,F,Алла Пуговкина,1975,Raw,D,Yes,Russia,
1,Elena Moiseycheva,Amateur Open,108.90,,,,,,,,,127.5,137.5,147.5,147.5,147.5,90+,F,Елена Моисейчева,1980,Raw,D,Yes,Russia,-155.0
1,Andrey Dezhin,Amateur Juniors 20-23,66.20,,,,,,,,,160.0,175.0,-192.5,175.0,175.0,67.5,M,Андрей Дежин,1992,Raw,D,Yes,Russia,
2,Yuriy Pogozhev,Amateur Juniors 20-23,65.80,,,,,,,,,165.0,-190.0,-190.0,165.0,165.0,67.5,M,Юрий Погожев,1990,Raw,D,Yes,Russia,
3,Evgeniy Kostyunkov,Amateur Juniors 20-23,66.40,,,,,,,,,155.0,160.0,-167.5,160.0,160.0,67.5,M,Евгений Костюньков,1993,Raw,D,Yes,Russia,
1,Askerbi Kunashev,Amateur Open,64.20,,,,,,,,,180.0,-190.0,-195.0,180.0,180.0,67.5,M,Аскерби Кунашев,1986,Raw,D,Yes,Russia,
2,Marat Ketenchiev,Amateur Open,64.90,,,,,,,,,150.0,-160.0,,150.0,150.0,67.5,M,Марат Кетенчиев,1986,Raw,D,Yes,Russia,
1,Denis Kuznetsov,Amateur Juniors 20-23,70.85,,,,,,,,,-180.0,180.0,-202.5,180.0,180.0,75,M,Денис Кузнецов,1990,Raw,D,Yes,Russia,
1,Aleksandr Grechukhin,Amateur Open,73.30,,,,,,,,,190.0,202.5,207.5,207.5,207.5,75,M,Александр Гречухин,1989,Raw,D,Yes,Russia,
2,Roman Mitrokhin,Amateur Open,69.10,,,,,,,,,180.0,190.0,202.5,202.5,202.5,75,M,Роман Митрохин,1977,Raw,D,Yes,Russia,
3,Nikolay Klimov,Amateur Open,73.30,,,,,,,,,185.0,202.5,-232.5,202.5,202.5,75,M,Николай Климов,1988,Raw,D,Yes,Russia,
4,Sergey Zotov,Amateur Open,72.90,,,,,,,,,185.0,195.0,-202.5,195.0,195.0,75,M,Сергей Зотов,1987,Raw,D,Yes,Russia,
5,Vadim Sudakov,Amateur Open,70.50,,,,,,,,,170.0,-180.0,-187.5,170.0,170.0,75,M,Вадим Судаков,1975,Raw,D,Yes,Russia,
DD,Aleksey Emelyanov,Amateur Open,75.00,,,,,,,,,225.0,235.0,240.0,240.0,,75,M,Алексей Емельянов,1983,Raw,D,Yes,Russia,242.5
1,Vladimir Ermokhin,Amateur Masters 50-54,75.00,,,,,,,,,-180.0,180.0,185.0,185.0,185.0,75,M,Владимир Ермохин,1961,Raw,D,Yes,Russia,
1,Pavel Bakhvalov,Amateur Teen 16-17,80.30,,,,,,,,,-162.5,162.5,-185.0,162.5,162.5,82.5,M,Павел Бахвалов,1997,Raw,D,Yes,Russia,
1,Pavel Yankovskiy,Amateur Juniors 20-23,78.60,,,,,,,,,190.0,215.0,220.0,220.0,220.0,82.5,M,Павел Янковский,1990,Raw,D,Yes,Russia,
2,Evgeniy Kupriyanov,Amateur Juniors 20-23,80.00,,,,,,,,,165.0,175.0,185.0,185.0,185.0,82.5,M,Евгений Куприянов,1993,Raw,D,Yes,Russia,
1,Vasiliy Perov,Amateur Open,81.60,,,,,,,,,230.0,245.0,-252.5,245.0,245.0,82.5,M,Василий Перов,1979,Raw,D,Yes,Russia,
2,Yuriy Shirobokov,Amateur Open,80.80,,,,,,,,,-215.0,215.0,230.0,230.0,230.0,82.5,M,Юрий Широбоков,1988,Raw,D,Yes,Russia,
3,Denis Garkusha,Amateur Open,78.60,,,,,,,,,210.0,215.0,,215.0,215.0,82.5,M,Денис Гаркуша,1978,Raw,D,Yes,Russia,
4,Aleksey Ignatyev,Amateur Open,79.70,,,,,,,,,200.0,,215.0,215.0,215.0,82.5,M,Алексей Игнатьев,1988,Raw,D,Yes,Russia,
5,Alexey Romanov,Amateur Open,81.30,,,,,,,,,195.0,205.0,-215.0,205.0,205.0,82.5,M,Алексей Романов,1986,Raw,D,Yes,Russia,
6,Aleksey Neyasov,Amateur Open,80.80,,,,,,,,,180.0,-190.0,-190.0,180.0,180.0,82.5,M,Алексей Неясов,1988,Raw,D,Yes,Russia,
1,Viktor Ovsyanyy,Amateur Masters 55-59,78.30,,,,,,,,,150.0,155.0,160.0,160.0,160.0,82.5,M,Виктор Овсяный,1958,Raw,D,Yes,Russia,
2,Vladimir Kulakov,Amateur Masters 55-59,76.30,,,,,,,,,115.0,,,115.0,115.0,82.5,M,Владимир Кулаков,1955,Raw,D,Yes,Russia,
1,Rodion Borzilo,Amateur Teen 16-17,83.30,,,,,,,,,195.0,200.0,,200.0,200.0,90,M,Родион Борзило,1997,Raw,D,Yes,Russia,
2,Maksim Kurchaev,Amateur Teen 16-17,87.80,,,,,,,,,200.0,-210.0,-210.0,200.0,200.0,90,M,Максим Курчаев,1998,Raw,D,Yes,Russia,
1,Aleksey Nikonov,Amateur Juniors 20-23,89.00,,,,,,,,,195.0,205.0,,205.0,205.0,90,M,Алексей Никонов,1993,Raw,D,Yes,Russia,
2,Evgeniy Klubnikin,Amateur Juniors 20-23,83.60,,,,,,,,,160.0,175.0,185.0,185.0,185.0,90,M,Евгений Клубникин,1991,Raw,D,Yes,Russia,
1,Nikolay Ustinov,Amateur Open,86.30,,,,,,,,,220.0,235.0,-245.0,235.0,235.0,90,M,Николай Устинов,1988,Raw,D,Yes,Russia,
2,Roman Kroshkin,Amateur Open,88.00,,,,,,,,,210.0,222.5,-230.0,222.5,222.5,90,M,Роман Крошкин,1981,Raw,D,Yes,Russia,
3,Denis Popov,Amateur Open,88.30,,,,,,,,,170.0,-182.5,-182.5,170.0,170.0,90,M,Денис Попов,1987,Raw,D,Yes,Russia,
4,Yuriy Ruzheynikov,Amateur Open,88.80,,,,,,,,,145.0,155.0,-170.0,155.0,155.0,90,M,Юрий Ружейников,1975,Raw,D,Yes,Russia,
1,Alexander Vorobyev,Amateur Masters 45-49,86.60,,,,,,,,,160.0,,,160.0,160.0,90,M,Александр Воробьев,1967,Raw,D,Yes,Russia,
1,Anton Gorbunov,Amateur Open,96.80,,,,,,,,,205.0,215.0,222.5,222.5,222.5,100,M,Антон Горбунов,1986,Raw,D,Yes,Russia,
2,Anatoliy Rylov,Amateur Open,95.80,,,,,,,,,210.0,215.0,-222.5,215.0,215.0,100,M,Анатолий Рылов,1986,Raw,D,Yes,Russia,
3,Andrey Dyachev,Amateur Open,98.50,,,,,,,,,190.0,202.5,215.0,215.0,215.0,100,M,Андрей Дьячев,1984,Raw,D,Yes,Russia,
4,Ruslan Novikov,Amateur Open,98.30,,,,,,,,,177.5,190.0,202.5,202.5,202.5,100,M,Руслан Новиков,1988,Raw,D,Yes,Russia,
5,Maksim Lyubushkin,Amateur Open,98.90,,,,,,,,,192.5,202.5,,202.5,202.5,100,M,Максим Любушкин,1989,Raw,D,Yes,Russia,
1,Dmitriy Kalinin,Amateur Masters 40-44,96.60,,,,,,,,,202.5,220.0,,220.0,220.0,100,M,Дмитрий Калинин,1970,Raw,D,Yes,Russia,
2,Sergey Kozlov,Amateur Masters 45-49,100.00,,,,,,,,,170.0,-185.0,-185.0,170.0,170.0,100,M,Сергей Козлов,1965,Raw,D,Yes,Russia,
1,Dmitriy Ignatov,Amateur Open,120.60,,,,,,,,,-240.0,240.0,250.0,250.0,250.0,125,M,Дмитрий Игнатов,1985,Raw,D,Yes,Russia,
1,Grigoriy Lysov,Amateur Open,97.65,,,,,-200.0,-200.0,200.0,200.0,,,,,200.0,100,M,Григорий Лысов,1976,Multi-ply,B,Yes,Russia,
1,Yuri Solovyev,Amateur Open,104.70,,,,,262.5,267.5,-270.0,267.5,,,,,267.5,110,M,Юрий Соловьев,1974,Multi-ply,B,Yes,Russia,
DQ,Vasiliy Filatov,Amateur Open,120.50,,,,,-270.0,-270.0,-270.0,,,,,,,125,M,Василий Филатов,1986,Multi-ply,B,Yes,Russia,
1,Andrey Dezhin,Amateur Juniors 20-23,66.20,,,,,130.0,-142.5,-142.5,130.0,,,,,130.0,67.5,M,Андрей Дежин,1992,Single-ply,B,Yes,Russia,
1,Andrey Dezhin,Amateur Open,66.20,,,,,130.0,-142.5,-142.5,130.0,,,,,130.0,67.5,M,Андрей Дежин,1992,Single-ply,B,Yes,Russia,
DQ,Denis Kopyttsev,Amateur Juniors 20-23,74.00,,,,,-147.5,,-147.5,,,,,,,75,M,Денис Копытцев,1990,Single-ply,B,Yes,Russia,
1,Andrey Sapozhonkov,Amateur Open,81.00,,,,,212.5,225.0,-235.0,225.0,,,,,225.0,82.5,M,Андрей Сапожонков,1987,Single-ply,B,Yes,Russia,
1,Andrey Prokhorov,Amateur Open,87.40,,,,,-150.0,-150.0,150.0,150.0,,,,,150.0,90,M,Андрей Прохоров,1988,Single-ply,B,Yes,Russia,
2,Mikhail Kurbatov,Amateur Open,89.50,,,,,125.0,-132.5,,125.0,,,,,125.0,90,M,Михаил Курбатов,1978,Single-ply,B,Yes,Russia,
1,Olga Lebedeva,Amateur Open,42.00,,,,,45.0,,,45.0,,,,,45.0,44,F,Ольга Лебедева,1984,Raw,B,Yes,Russia,
2,Irina Mitrokhina,Amateur Open,46.40,,,,,55.0,,,55.0,,,,,55.0,48,F,Ирина Митрохина,1989,Raw,B,Yes,Russia,
2,Tatyana Primak,Amateur Open,47.60,,,,,47.5,-52.5,-52.5,47.5,,,,,47.5,48,F,Татьяна Примак,1983,Raw,B,Yes,Russia,
1,Marina Gorikova,Amateur Open,52.00,,,,,62.5,65.0,70.0,70.0,,,,,70.0,52,F,Марина Горикова,1983,Raw,B,Yes,Russia,
1,Ekaterina Dudareva,Amateur Juniors 20-23,56.00,,,,,50.0,,,50.0,,,,,50.0,56,F,Екатерина Дударева,1993,Raw,B,Yes,Russia,
1,Anna Taganova,Amateur Open,53.70,,,,,45.0,-50.0,-52.5,45.0,,,,,45.0,56,F,Анна Таганова,1986,Raw,B,Yes,Russia,
1,Olga Tikhonova,Amateur Open,59.00,,,,,47.5,55.0,57.5,57.5,,,,,57.5,60,F,Ольга Тихонова,1988,Raw,B,Yes,Russia,
2,Anna Zhelyabovskaya,Amateur Open,59.20,,,,,-45.0,47.5,-52.5,47.5,,,,,47.5,60,F,Анна Желябовская,1978,Raw,B,Yes,Russia,
1,Tatyana Obraztsova,Amateur Open,61.60,,,,,50.0,52.5,-55.0,52.5,,,,,52.5,67.5,F,Татьяна Образцова,1978,Raw,B,Yes,Russia,
2,Mariya Novikova,Amateur Open,65.70,,,,,40.0,42.5,45.0,45.0,,,,,45.0,67.5,F,Мария Новикова,1981,Raw,B,Yes,Russia,
DQ,Natalya Karmen,Amateur Open,64.80,,,,,-57.5,,,,,,,,,67.5,F,Наталья Кармен,1986,Raw,B,Yes,Russia,
1,Nina Tulina,Amateur Open,75.00,,,,,60.0,65.0,70.0,70.0,,,,,70.0,75,F,Нина Тулина,1981,Raw,B,Yes,Russia,
1,Alla Pugovkina,Amateur Open,81.20,,,,,100.0,-105.0,105.0,105.0,,,,,105.0,82.5,F,Алла Пуговкина,1975,Raw,B,Yes,Russia,
DQ,Sergey Gritsan,Amateur Open,53.80,,,,,-90.0,-90.0,-90.0,,,,,,,56,M,Сергей Грицан,1982,Raw,B,Yes,Russia,
1,Sergey Pronichkin,Amateur Open,59.90,,,,,100.0,105.0,-107.5,105.0,,,,,105.0,60,M,Сергей Проничкин,1989,Raw,B,Yes,Russia,
DQ,Andrey Tsyganash,Amateur Teen 18-19,64.10,,,,,-105.0,-105.0,-105.0,,,,,,,67.5,M,Андрей Цыганаш,1996,Raw,B,Yes,Russia,
1,Andrey Dezhin,Amateur Juniors 20-23,66.20,,,,,117.5,-122.5,122.5,122.5,,,,,122.5,67.5,M,Андрей Дежин,1992,Raw,B,Yes,Russia,
1,Sergey Perevalov,Amateur Open,67.20,,,,,135.0,-140.0,,135.0,,,,,135.0,67.5,M,Сергей Перевалов,1981,Raw,B,Yes,Russia,
2,Mikhail Kot,Amateur Open,65.80,,,,,120.0,-125.0,125.0,125.0,,,,,125.0,67.5,M,Михаил Кот,1986,Raw,B,Yes,Russia,
3,Aleksey Kozlov #4,Amateur Open,64.50,,,,,120.0,-125.0,-130.0,120.0,,,,,120.0,67.5,M,Алексей Козлов,1986,Raw,B,Yes,Russia,
4,Oleg Schetinin,Amateur Open,66.40,,,,,115.0,120.0,-125.0,120.0,,,,,120.0,67.5,M,Олег Щетинин,1989,Raw,B,Yes,Russia,
5,Vladimir Semenichenko,Amateur Open,66.90,,,,,115.0,-120.0,-120.0,115.0,,,,,115.0,67.5,M,Владимир Семениченко,1986,Raw,B,Yes,Russia,
DQ,Dmitriy Shesterov,Amateur Open,67.00,,,,,-105.0,-107.5,-107.5,,,,,,,67.5,M,Дмитрий Шестеров,1987,Raw,B,Yes,Russia,
1,Vladimir Kruchaev,Amateur Masters 45-49,66.40,,,,,105.0,-107.5,107.5,107.5,,,,,107.5,67.5,M,Владимир Кручаев,1968,Raw,B,Yes,Russia,
1,Evgeniy Gorshkov,Amateur Teen 13-15,69.40,,,,,75.0,80.0,85.0,85.0,,,,,85.0,75,M,Евгений Горшков,1999,Raw,B,Yes,Russia,
1,Nikita Nagaytsev,Amateur Teen 16-17,74.30,,,,,105.0,110.0,-112.5,110.0,,,,,110.0,75,M,Никита Нагайцев,1997,Raw,B,Yes,Russia,
1,Aleksandr Zhavoronkov,Amateur Teen 18-19,72.10,,,,,105.0,,,105.0,,,,,105.0,75,M,Александр Жаворонков,1995,Raw,B,Yes,Russia,
1,Dmitriy Shvetsov,Amateur Open,73.60,,,,,142.5,147.5,-155.0,147.5,,,,,147.5,75,M,Дмитрий Швецов,1988,Raw,B,Yes,Russia,
2,Pavel Galkin,Amateur Open,71.90,,,,,117.5,125.0,-130.0,125.0,,,,,125.0,75,M,Павел Галкин,1987,Raw,B,Yes,Russia,
3,Oleg Lukshin,Amateur Open,72.10,,,,,120.0,125.0,-130.0,125.0,,,,,125.0,75,M,Олег Лукшин,1983,Raw,B,Yes,Russia,
4,Sergey Doroginin,Amateur Open,73.00,,,,,117.5,122.5,-125.0,122.5,,,,,122.5,75,M,Сергей Дорогинин,1988,Raw,B,Yes,Russia,
5,Roman Mitrokhin,Amateur Open,68.50,,,,,120.0,-122.5,-122.5,120.0,,,,,120.0,75,M,Роман Митрохин,1977,Raw,B,Yes,Russia,
6,Kirill Borodin,Amateur Open,73.30,,,,,120.0,-127.5,,120.0,,,,,120.0,75,M,Кирилл Бородин,1993,Raw,B,Yes,Russia,
7,Evgeniy Batyaev,Amateur Open,71.30,,,,,105.0,-112.5,-112.5,105.0,,,,,105.0,75,M,Евгений Батяев,1986,Raw,B,Yes,Russia,
DQ,Ildar Kharipov,Amateur Open,71.10,,,,,-105.0,-105.0,-105.0,,,,,,,75,M,Ильдар Харипов,1989,Raw,B,Yes,Russia,
DQ,Sergey Mischenko,Amateur Open,71.80,,,,,-130.0,,,,,,,,,75,M,Сергей Мищенко,1986,Raw,B,Yes,Russia,
DQ,Sergey Kulikov,Amateur Open,72.50,,,,,-82.5,-95.0,-95.0,,,,,,,75,M,Сергей Куликов,1995,Raw,B,Yes,Russia,
1,Vladimir Ermokhin,Amateur Masters 50-54,75.00,,,,,100.0,,,100.0,,,,,100.0,75,M,Владимир Ермохин,1961,Raw,B,Yes,Russia,
1,Evgeniy Kupriyanov,Amateur Juniors 20-23,80.00,,,,,120.0,127.5,-132.5,127.5,,,,,127.5,82.5,M,Евгений Куприянов,1993,Raw,B,Yes,Russia,
2,Dmitriy Ukolov,Amateur Juniors 20-23,80.20,,,,,135.0,-140.0,-140.0,135.0,,,,,135.0,82.5,M,Дмитрий Уколов,1992,Raw,B,Yes,Russia,
1,Arkadiy Krylov,Amateur Open,79.60,,,,,160.0,167.5,172.5,172.5,,,,,172.5,82.5,M,Аркадий Крылов,1989,Raw,B,Yes,Russia,
2,Andrey Grebenkin,Amateur Open,81.90,,,,,140.0,-145.0,-145.0,140.0,,,,,140.0,82.5,M,Андрей Гребенкин,1980,Raw,B,Yes,Russia,
3,Sergey Somov,Amateur Open,81.10,,,,,-130.0,-130.0,130.0,130.0,,,,,130.0,82.5,M,Сергей Сомов,1983,Raw,B,Yes,Russia,
4,Mikhail Dorovatovskiy,Amateur Open,81.50,,,,,120.0,,-127.5,120.0,,,,,120.0,82.5,M,Михаил Дороватовский,1981,Raw,B,Yes,Russia,
DQ,Stanislav Nesterov,Amateur Open,79.70,,,,,-107.5,-107.5,-107.5,,,,,,,82.5,M,Станислав Нестеров,1990,Raw,B,Yes,Russia,
DQ,Mikhail Davydov,Amateur Open,80.20,,,,,-130.0,-130.0,,,,,,,,82.5,M,Михаил Давыдов,1986,Raw,B,Yes,Russia,
DQ,Sergey Myakishev,Amateur Open,80.80,,,,,-147.5,-147.5,,,,,,,,82.5,M,Сергей Мякишев,1985,Raw,B,Yes,Russia,
1,Aleksey Levin,Amateur Masters 40-44,80.30,,,,,120.0,,,120.0,,,,,120.0,82.5,M,Алексей Левин,1970,Raw,B,Yes,Russia,
1,Ruslan Belozub,Amateur Masters 45-49,79.90,,,,,-122.5,122.5,-127.5,122.5,,,,,122.5,82.5,M,Руслан Белозуб,1967,Raw,B,Yes,Russia,
1,Sergey Bazanov,Amateur Masters 50-54,82.30,,,,,140.0,,,140.0,,,,,140.0,82.5,M,Сергей Базанов,1962,Raw,B,Yes,Russia,
1,Vasiliy Mosin,Amateur Masters 55-59,79.70,,,,,140.0,-147.5,-147.5,140.0,,,,,140.0,82.5,M,Василий Мосин,1956,Raw,B,Yes,Russia,
2,Vladimir Kulakov,Amateur Masters 55-59,76.30,,,,,90.0,95.0,97.5,97.5,,,,,97.5,82.5,M,Владимир Кулаков,1955,Raw,B,Yes,Russia,
1,Boris Grachev,Amateur Masters 65-69,78.30,,,,,110.0,115.0,120.0,120.0,,,,,120.0,82.5,M,Борис Грачев,1945,Raw,B,Yes,Russia,
1,Aleksey Korolev,Amateur Juniors 20-23,86.20,,,,,125.0,-132.5,132.5,132.5,,,,,132.5,90,M,Алексей Королев,1991,Raw,B,Yes,Russia,
1,Vasiliy Maksimenkov,Amateur Open,89.00,,,,,150.0,160.0,177.5,177.5,,,,,177.5,90,M,Василий Максименков,1982,Raw,B,Yes,Russia,
2,Alexander Vorobyev,Amateur Open,85.20,,,,,162.5,,,162.5,,,,,162.5,90,M,Александр Воробьев,1967,Raw,B,Yes,Russia,
3,Andrey Pavlov #4,Amateur Open,88.30,,,,,162.5,-170.0,-170.0,162.5,,,,,162.5,90,M,Андрей Павлов,1987,Raw,B,Yes,Russia,
4,Artem Kornev #2,Amateur Open,85.50,,,,,155.0,157.5,-165.0,157.5,,,,,157.5,90,M,Артем Корнев,1978,Raw,B,Yes,Russia,
5,Ivan Stepanov,Amateur Open,87.15,,,,,147.5,152.5,-155.0,152.5,,,,,152.5,90,M,Иван Степанов,1983,Raw,B,Yes,Russia,
6,Aleksey Izotov,Amateur Open,88.40,,,,,140.0,152.5,-157.5,152.5,,,,,152.5,90,M,Алексей Изотов,1984,Raw,B,Yes,Russia,
7,Stanislav Pashkevich,Amateur Open,84.40,,,,,140.0,-155.0,-155.0,140.0,,,,,140.0,90,M,Станислав Пашкевич,1986,Raw,B,Yes,Russia,
8,Pavel Tumm,Amateur Open,87.10,,,,,140.0,-145.0,-145.0,140.0,,,,,140.0,90,M,Павел Тумм,1976,Raw,B,Yes,Russia,
9,Aleksey Blagov,Amateur Open,88.00,,,,,-132.5,132.5,140.0,140.0,,,,,140.0,90,M,Алексей Благов,1986,Raw,B,Yes,Russia,
10,Aleksandr Sukhanov,Amateur Open,89.60,,,,,135.0,140.0,-145.0,140.0,,,,,140.0,90,M,Александр Суханов,1989,Raw,B,Yes,Russia,
11,Igor Grachev,Amateur Open,88.50,,,,,-135.0,135.0,-140.0,135.0,,,,,135.0,90,M,Игорь Грачев,1978,Raw,B,Yes,Russia,
12,Sergey Lilev,Amateur Open,84.30,,,,,-120.0,120.0,-125.0,120.0,,,,,120.0,90,M,Сергей Лилев,1989,Raw,B,Yes,Russia,
13,Sergey Bannykh,Amateur Open,89.10,,,,,-120.0,120.0,-127.5,120.0,,,,,120.0,90,M,Сергей Банных,1985,Raw,B,Yes,Russia,
14,Aleksey Fursov,Amateur Open,87.50,,,,,110.0,-120.0,-120.0,110.0,,,,,110.0,90,M,Алексей Фурсов,1987,Raw,B,Yes,Russia,
15,Denis Popov,Amateur Open,87.50,,,,,-102.5,102.5,-107.5,102.5,,,,,102.5,90,M,Денис Попов,1987,Raw,B,Yes,Russia,
DQ,Mikhail Potkin,Amateur Open,86.20,,,,,-107.5,,-107.5,,,,,,,90,M,Михаил Поткин,1988,Raw,B,Yes,Russia,
DQ,Igor Ushakov,Amateur Open,87.30,,,,,-132.5,-132.5,-132.5,,,,,,,90,M,Игорь Ушаков,1990,Raw,B,Yes,Russia,
DQ,Dmitriy Snytko,Amateur Open,87.90,,,,,-132.5,-132.5,-132.5,,,,,,,90,M,Дмитрий Снытко,1989,Raw,B,Yes,Russia,
1,Sergey Yarochkin,Amateur Masters 40-44,88.90,,,,,150.0,155.0,-160.0,155.0,,,,,155.0,90,M,Сергей Ярочкин,1971,Raw,B,Yes,Russia,
2,Igor Chernyshov,Amateur Masters 40-44,87.90,,,,,142.5,,,142.5,,,,,142.5,90,M,Игорь Чернышов,1969,Raw,B,Yes,Russia,
1,Alexander Vorobyev,Amateur Masters 45-49,85.20,,,,,150.0,157.5,162.5,162.5,,,,,162.5,90,M,Александр Воробьев,1967,Raw,B,Yes,Russia,
1,Aleksey Pustovoytov,Amateur Open,96.00,,,,,160.0,165.0,-170.0,165.0,,,,,165.0,100,M,Алексей Пустовойтов,1984,Raw,B,Yes,Russia,
2,Dmitriy Ilyukhin,Amateur Open,97.50,,,,,140.0,-145.0,-145.0,140.0,,,,,140.0,100,M,Дмитрий Илюхин,1982,Raw,B,Yes,Russia,
3,Valeriy Tsarkov,Amateur Open,98.20,,,,,-140.0,140.0,-145.0,140.0,,,,,140.0,100,M,Валерий Царьков,1980,Raw,B,Yes,Russia,
DD,Dmitriy Sukhorukov,Amateur Open,93.40,,,,,,,,,,,,,,100,M,Дмитрий Сухоруков,1990,Raw,B,Yes,Russia,
1,Valeriy Chernov #1,Amateur Masters 40-44,94.30,,,,,147.5,152.5,155.0,155.0,,,,,155.0,100,M,Валерий Чернов,1969,Raw,B,Yes,Russia,
1,Valeriy Terentyev,Amateur Masters 45-49,95.85,,,,,130.0,132.5,135.0,135.0,,,,,135.0,100,M,Валерий Терентьев,1966,Raw,B,Yes,Russia,
2,Yuriy Lyubach,Amateur Masters 45-49,93.40,,,,,125.0,130.0,-135.0,130.0,,,,,130.0,100,M,Юрий Любач,1968,Raw,B,Yes,Russia,
1,Ivan Arsentyev,Amateur Open,109.70,,,,,190.0,200.0,202.5,202.5,,,,,202.5,110,M,Иван Арсентьев,1976,Raw,B,Yes,Russia,
1,Vladimir Patsulo,Amateur Masters 45-49,107.20,,,,,150.0,,,150.0,,,,,150.0,110,M,Владимир Пацуло,1967,Raw,B,Yes,Russia,
DQ,Mikhail Mazurkevich,Amateur Open,124.30,,,,,-160.0,-160.0,-160.0,,,,,,,125,M,Михаил Мазуркевич,1982,Raw,B,Yes,Russia,
1,Mikhail Grigorenko,Amateur Masters 45-49,114.10,,,,,165.0,-167.5,-167.5,165.0,,,,,165.0,125,M,Михаил Григоренко,1968,Raw,B,Yes,Russia,
