Division,WeightClassKg,Place,Name,Team,BodyweightKg,Best3SquatKg,Best3BenchKg,Best3DeadliftKg,TotalKg,Equipment,Event,Sex
Boys,51.71,1,Justin Brady,Carrizo Springs,51.71,97.52,63.5,127.01,288.03,Single-ply,SBD,M
Boys,51.71,2,Lorenzo Camacho,Uvalde,45.63,20.41,38.56,70.31,129.27,Single-ply,SBD,M
Boys,51.71,DQ,Christian Campos,Uvalde,51.07,,,,,Single-ply,SBD,M
Boys,55.79,1,Isaiah Lucio,Pearsall,54.79,122.47,102.06,147.42,371.95,Single-ply,SBD,M
Boys,55.79,2,Luke Torres,Devine,55.02,122.47,77.11,131.54,331.12,Single-ply,SBD,M
Boys,59.87,3,Jaime Ramirez,Rocksprings,55.97,106.59,70.31,104.33,281.23,Single-ply,SBD,M
Boys,55.79,DQ,Manny Arrellano,Pearsall,53.34,77.11,90.72,,,Single-ply,SBD,M
Boys,59.87,1,Dimas Tenorio,Crystal City,59.87,183.7,111.13,172.37,467.2,Single-ply,SBD,M
Boys,59.87,2,Rodney Garcia,Carrizo Springs,59.78,142.88,88.45,151.95,383.29,Single-ply,SBD,M
Boys,59.87,3,Diego Perez #1,Rocksprings,59.42,102.06,70.31,83.91,256.28,Single-ply,SBD,M
Boys,59.87,4,Marco Gomez,Crystal City,58.88,92.99,65.77,83.91,242.67,Single-ply,SBD,M
Boys,59.87,DQ,Steven Ramirez,Devine,59.42,,,,,Single-ply,SBD,M
Boys,67.13,DQ,Jose Fargason,Devine,60.06,,,,,Single-ply,SBD,M
Boys,67.13,1,Aaron Realme,Pearsall,64.14,176.9,92.99,179.17,449.06,Single-ply,SBD,M
Boys,67.13,2,Esai DeLuna,Carrizo Springs,66.22,158.76,99.79,163.29,421.84,Single-ply,SBD,M
Boys,67.13,3,Luis Perales,Carrizo Springs,66.95,136.08,92.99,176.9,405.97,Single-ply,SBD,M
Boys,67.13,4,Robert Rendon,Crystal City,65.41,154.22,88.45,161.03,403.7,Single-ply,SBD,M
Boys,74.84,5,Gil Garcia,Crystal City,67.22,133.81,79.38,183.7,396.89,Single-ply,SBD,M
Boys,67.13,6,Sanchez Edgar,Uvalde,66.68,117.93,68.04,115.67,301.64,Single-ply,SBD,M
Boys,67.13,7,Juergen Lapham,Center Point,63.68,97.52,61.23,131.54,290.3,Single-ply,SBD,M
Boys,74.84,DQ,Francisco Arenas,Crystal City,67.22,,,,,Single-ply,SBD,M
Boys,67.13,DQ,Chase Dubose,Devine,67.13,104.33,,,,Single-ply,SBD,M
Boys,67.13,DQ,Paul Santana,Devine,65.14,,,,,Single-ply,SBD,M
Boys,74.84,1,Rene Rodriguez,Pearsall,69.49,172.37,106.59,154.22,433.18,Single-ply,SBD,M
Boys,74.84,2,John Reyes #1,Pearsall,69.85,133.81,95.25,192.78,421.84,Single-ply,SBD,M
Boys,74.84,3,Daniel Martin,Center Point,74.75,136.08,95.25,172.37,403.7,Single-ply,SBD,M
Boys,74.84,4,Paolo Valdez,Center Point,67.59,129.27,56.7,127.01,312.98,Single-ply,SBD,M
Boys,74.84,5,Anthony Maldonado,La Pryor,68.58,106.59,68.04,120.2,294.84,Single-ply,SBD,M
Boys,74.84,6,Jorge Ortiz,Uvalde,74.84,142.88,,145.15,288.03,Single-ply,SD,M
Boys,74.84,DQ,Eduardo Medrano,Uvalde,69.31,174.63,86.18,,,Single-ply,SBD,M
Boys,82.1,DQ,Isreal Ramirez,Dilley,74.93,,,,,Single-ply,SD,M
Boys,82.1,DQ,Devin Garcia,Dilley,74.93,138.35,,,,Single-ply,SD,M
Boys,74.84,DQ,Coltin Bentley,Devine,73.84,,,,,Single-ply,SD,M
Boys,74.84,DQ,Eric Gonzalez,Carrizo Springs,73.66,70.31,,,,Single-ply,SD,M
Boys,74.84,DQ,Jaaziel Buenrostro,Carrizo Springs,73.3,,,,,Single-ply,SD,M
Boys,82.1,1,Diego Garza,Pearsall,80.47,210.92,115.67,170.1,496.68,Single-ply,SBD,M
Boys,82.1,2,Matthew Embers,Carrizo Springs,79.56,163.29,95.25,165.56,424.11,Single-ply,SBD,M
Boys,82.1,3,Gomez Albert,Uvalde,80.74,156.49,97.52,170.1,424.11,Single-ply,SBD,M
Boys,82.1,4,Jordan Romo,Carrizo Springs,81.92,158.76,95.25,163.29,417.3,Single-ply,SBD,M
Boys,82.1,5,Rene Romero,Crystal City,80.2,145.15,102.06,142.88,390.09,Single-ply,SBD,M
Boys,82.1,6,Louie Salazar,Carrizo Springs,76.66,131.54,83.91,136.08,351.53,Single-ply,SBD,M
Boys,82.1,7,Diego Pesina,La Pryor,79.38,106.59,49.9,111.13,267.62,Single-ply,SBD,M
Boys,89.81,1,Steven Medrano,Dilley,85.91,229.06,131.54,201.85,562.45,Single-ply,SBD,M
Boys,89.81,2,Daniel Mann #2,Devine,86.36,197.31,142.88,192.78,532.97,Single-ply,SBD,M
Boys,89.81,3,Derek Garcia,Uvalde,86.91,163.29,142.88,183.7,489.88,Single-ply,SBD,M
Boys,89.81,4,Calvin Martinez,Carrizo Springs,85.73,183.7,102.06,172.37,458.13,Single-ply,SBD,M
Boys,89.81,5,Michael Vasquez,Carrizo Springs,87.63,133.81,129.27,188.24,451.32,Single-ply,SBD,M
Boys,89.81,6,Jeremy Garcia,Carrizo Springs,88.63,158.76,95.25,170.1,424.11,Single-ply,SBD,M
Boys,89.81,7,Austin Felan,Devine,89.81,142.88,92.99,136.08,371.95,Single-ply,SBD,M
Boys,89.81,8,Jonathon Alvarado,Crystal City,85.82,124.74,83.91,142.88,351.53,Single-ply,SBD,M
Boys,89.81,9,Ariel Perez,Crystal City,88.9,102.06,63.5,142.88,308.44,Single-ply,SBD,M
Boys,89.81,10,Steven Musquiz,Crystal City,89.36,81.65,63.5,117.93,263.08,Single-ply,SBD,M
Boys,89.81,11,Juan Oyevirdez,Carrizo Springs,86,95.25,49.9,104.33,249.48,Single-ply,SBD,M
Boys,99.79,1,Jose Orellana,La Pryor,95.16,215.46,149.69,213.19,578.33,Single-ply,SBD,M
Boys,99.79,2,Eli Rejino,Devine,95.44,183.7,127.01,188.24,498.95,Single-ply,SBD,M
Boys,99.79,3,Christian Lopez #7,La Pryor,95.8,192.78,99.79,195.04,487.61,Single-ply,SBD,M
Boys,99.79,4,Joshua Cuevas,Pearsall,93.44,165.56,99.79,195.04,460.4,Single-ply,SBD,M
Boys,99.79,5,David Arvizo,La Pryor,91.35,163.29,102.06,158.76,424.11,Single-ply,SBD,M
Boys,99.79,6,Emilio Alvarado,Crystal City,98.34,127.01,102.06,154.22,383.29,Single-ply,SBD,M
Boys,99.79,7,Alejandro Gonzalez,Crystal City,91.81,142.88,74.84,142.88,360.61,Single-ply,SBD,M
Boys,99.79,8,Cruz Montez,Carrizo Springs,95.25,72.57,72.57,122.47,267.62,Single-ply,SBD,M
Boys,99.79,DQ,Antonio Ramirez,Crystal City,97.34,165.56,92.99,,,Single-ply,SBD,M
Boys,99.79,DQ,Robert Cervantez,Dilley,92.08,,,,,Single-ply,SBD,M
Boys,109.77,1,Jason Cortez,Uvalde,104.87,256.28,165.56,188.24,610.08,Single-ply,SBD,M
Boys,109.77,2,Ray Palomeque,Pearsall,108.05,199.58,122.47,226.8,548.85,Single-ply,SBD,M
Boys,109.77,3,Jacob Esquibel,La Pryor,100.97,174.63,106.59,176.9,458.13,Single-ply,SBD,M
Boys,109.77,4,Jason Gallegos,Carrizo Springs,109.77,142.88,81.65,138.35,362.87,Single-ply,SBD,M
Boys,124.74,1,Jp Ortiz,Devine,114.4,240.4,138.35,238.14,616.89,Single-ply,SBD,M
Boys,124.74,2,Leo Martinez,Center Point,124.65,235.87,140.61,219.99,596.47,Single-ply,SBD,M
Boys,124.74,3,Jose Mata,La Pryor,122.74,217.72,149.69,217.72,585.13,Single-ply,SBD,M
Boys,124.74,4,Matthew Castro,Carrizo Springs,115.94,172.37,95.25,111.13,378.75,Single-ply,SBD,M
Boys,124.74,5,Dylan Stone,Dilley,113.58,142.88,99.79,181.44,424.11,Single-ply,SBD,M
Boys,124.74,DQ,Austin Soto,Devine,115.3,226.8,174.63,,,Single-ply,SBD,M
Boys,124.74,DQ,Morales Jose,Crystal City,116.57,,,,,Single-ply,SBD,M
Boys,124.74,DQ,Miguel Garcia,Uvalde,120.56,199.58,111.13,,,Single-ply,SBD,M
Boys,124.74+,1,Mario Chavez,Carrizo Springs,185.52,195.04,156.49,206.38,557.92,Single-ply,SBD,M
Boys,124.74+,2,Edward Gonzalez,Crystal City,131.63,242.67,117.93,167.83,528.44,Single-ply,SBD,M
Boys,124.74+,DQ,Jose Nuno,Devine,137.8,215.46,117.93,,,Single-ply,SBD,M
