Place,Name,State,WeightClassKg,BodyweightKg,Age,Best3SquatKg,Best3BenchKg,Best3DeadliftKg,TotalKg,Sex,Division,Equipment,Event
1,Amanda Smith #5,MI,67.5,64.3,19,132.5,75,152.5,360,F,Juniors 18-19,Raw,SBD
DQ,Tara Santos,NC,60,59.1,28,107.5,,147.5,,F,Open,Raw,SBD
1,Amanda Smith #5,MI,67.5,64.3,19,132.5,75,152.5,360,F,Open,Raw,SBD
2,Ashley Barlett,NC,67.5,63,26,97.5,50,125,272.5,F,Open,Raw,SBD
3,Alyson Holloway,NC,67.5,64.9,29,80,60,125,265,F,Open,Raw,SBD
1,Samantha Kempink,FL,75,75,27,105,52.5,132.5,290,F,Open,Raw,SBD
1,Tiffany Chojnacki,NC,82.5,76.2,28,172.5,117.5,192.5,482.5,F,Open,Raw,SBD
DQ,Karen Lopez,NC,82.5,81.8,35,,52.5,132.5,,F,Open,Raw,SBD
1,Laura Salazar,NC,90+,110,29,137.5,70,152.5,360,F,Open,Raw,SBD
2,Carina Mone,NC,90+,111.3,36,110,65,117.5,292.5,F,Open,Raw,SBD
3,Sarah Hassell,NC,90+,112.6,26,102.5,45,117.5,265,F,Open,Raw,SBD
1,Carina Mone,NC,90+,111.3,36,110,65,117.5,292.5,F,Submasters 35-39,Raw,SBD
DQ,Kelly Chafatelli,NC,52,51,54,,,85,,F,Masters 50-54,Raw,SBD
1,Erica Johnson,NC,75,70.9,43,92.5,52.5,127.5,272.5,F,Masters 40-44,Raw,SBD
1,Zachary Mann,NC,82.5,81,18,190,122.5,237.5,550,M,Juniors 18-19,Raw,SBD
2,Ben Rosicky,NC,82.5,79.4,19,132.5,95,170,397.5,M,Juniors 18-19,Raw,SBD
1,John Nonnenmacher,NC,82.5,75.4,22,165,150,182.5,497.5,M,Juniors 20-23,Raw,SBD
2,Andrew Rattanavong,NC,82.5,78.6,22,160,82.5,212.5,455,M,Juniors 20-23,Raw,SBD
1,Tyler Hester,NC,90,89.7,22,182.5,120,217.5,520,M,Juniors 20-23,Raw,SBD
1,Maxwell Riley,NH,100,99.6,21,242.5,147.5,292.5,682.5,M,Juniors 20-23,Raw,SBD
1,Ronald Gering,NC,110,107.1,19,237.5,172.5,252.5,662.5,M,Juniors 18-19,Raw,SBD
1,Tanner Davis,NC,125,124.6,21,212.5,150,245,607.5,M,Juniors 20-23,Raw,SBD
1,Gabriel Pena,NC,75,72.5,19,200,100,227.5,527.5,M,Open,Raw,SBD
2,Gerald Wilson,SC,75,71.5,27,140,135,150,425,M,Open,Raw,SBD
3,Steeler Rush,SC,75,69.3,24,110,80,147.5,337.5,M,Open,Raw,SBD
1,Robert Axselle,SC,82.5,78.6,25,257.5,175,272.5,705,M,Open,Raw,SBD
2,Joshua Quattrone,NC,82.5,82,38,215,157.5,237.5,610,M,Open,Raw,SBD
3,Clark Dancy,MD,82.5,80.2,25,202.5,122.5,202.5,527.5,M,Open,Raw,SBD
4,Trent Barlett,NC,82.5,82.4,25,185,107.5,235,527.5,M,Open,Raw,SBD
5,Kenneth Tew,GA,82.5,82,27,182.5,100,227.5,510,M,Open,Raw,SBD
6,Joshua Lilly #2,NC,82.5,80.2,30,160,117.5,200,477.5,M,Open,Raw,SBD
7,Paul Alderman,NC,82.5,76.8,29,150,97.5,142.5,390,M,Open,Raw,SBD
1,Justin Veillette,GA,90,88.2,25,250,167.5,282.5,700,M,Open,Raw,SBD
2,Jack Syers,GA,90,89,23,242.5,180,275,697.5,M,Open,Raw,SBD
3,Caleb Ruiz,NC,90,88,20,205,130,237.5,572.5,M,Open,Raw,SBD
4,Kazden Ikehara,NC,90,87.9,30,195,115,240,550,M,Open,Raw,SBD
5,Tyler Hester,NC,90,89.7,22,182.5,120,217.5,520,M,Open,Raw,SBD
6,Roman Wright,SC,90,88.2,22,185,115,212.5,512.5,M,Open,Raw,SBD
DQ,Alexander Lambert,SC,90,86.4,24,205,,250,,M,Open,Raw,SBD
1,Fred Lingenfelter,NC,100,90.6,34,265,160,255,680,M,Open,Raw,SBD
2,Jonathan Reece,NC,100,95.5,33,210,165,255,630,M,Open,Raw,SBD
3,Scott Barton,GA,100,95.5,30,207.5,152.5,250,610,M,Open,Raw,SBD
4,David Pink,NC,100,99.2,33,210,145,235,590,M,Open,Raw,SBD
5,Alexander Freshley,NC,100,93.6,20,175,130,227.5,532.5,M,Open,Raw,SBD
1,Ronald Gering,NC,110,107.1,19,237.5,172.5,252.5,662.5,M,Open,Raw,SBD
2,James Walding,NC,110,105.9,36,195,160,200,555,M,Open,Raw,SBD
3,Alex Wignall,NC,110,107.8,28,160,107.5,205,472.5,M,Open,Raw,SBD
1,Tanner Davis,NC,125,124.6,21,212.5,150,245,607.5,M,Open,Raw,SBD
1,Bryan Lassiter,WV,140+,156.7,25,155,132.5,185,472.5,M,Open,Raw,SBD
1,Christopher Jones,IL,90,88.5,50,137.5,137.5,182.5,457.5,M,Masters 50-54,Raw,SBD
1,America Reece,NC,82.5,77.3,31,127.5,82.5,137.5,347.5,F,Open,Wraps,SBD
1,Tyler Albarado,NC,100,98.4,25,257.5,167.5,260,685,M,Open,Wraps,SBD
1,Dakota Cagle,NC,125,120.4,31,327.5,202.5,327.5,857.5,M,Open,Wraps,SBD
2,Andrew Hefner,NC,125,119.6,28,255,157.5,267.5,680,M,Open,Wraps,SBD
1,Jeremy Willis #1,NC,100,98.9,40,245,147.5,282.5,675,M,Masters 40-44,Wraps,SBD
1,Mike Sartain,NC,110,108.1,47,220,160,205,585,M,Masters 45-49,Wraps,SBD
1,Alyson Holloway,NC,67.5,64.9,29,,60,,60,F,Open,Raw,B
1,Tim Metcalf,NC,75,75,58,,105,,105,M,Masters 55-59,Raw,B
1,Sam Smith #2,NC,110,104.1,55,,200,,200,M,Masters 55-59,Single-ply,B
1,Steeler Rush,SC,75,69.3,24,,,147.5,147.5,M,Open,Raw,D
1,Todd King,NC,125,114.5,53,,,230,230,M,Open,Raw,D
1,Tim Metcalf,NC,75,75,58,,,142.5,142.5,M,Masters 55-59,Raw,D
1,Todd King,NC,125,114.5,53,,,230,230,M,Masters 50-54,Raw,D
1,Morgan Tyndall,NC,110,109,33,,145,265,410,M,Open,Raw,BD
