Division,WeightClassKg,Place,Name,Team,BodyweightKg,Best3SquatKg,Best3BenchKg,Best3DeadliftKg,TotalKg,Equipment,Event,Sex
Boys,51.71,1,Diego Pena,Roma,50.71,165.56,88.45,167.83,421.84,Single-ply,SBD,M
Boys,55.79,2,Martin Villarreal,Laredo United South,51.89,145.15,83.91,172.37,401.43,Single-ply,SBD,M
Boys,55.79,3,Hector Villegas,Roma,51.8,117.93,63.5,131.54,312.98,Single-ply,SBD,M
Boys,51.71,4,Juan Muniz,Laredo Cigarroa,51.07,106.59,65.77,111.13,283.5,Single-ply,SBD,M
Boys,51.71,5,Juan Martinez,Laredo Nixon,49.62,68.04,40.82,90.72,199.58,Single-ply,SBD,M
Boys,55.79,1,Jerry Alaniz,Laredo Alexander,55.79,185.97,115.67,167.83,469.47,Single-ply,SBD,M
Boys,55.79,2,Eric Oliva,Laredo United South,53.52,156.49,92.99,163.29,412.77,Single-ply,SBD,M
Boys,55.79,3,Edgar Barbosa,Laredo Cigarroa,53.8,174.63,77.11,158.76,410.5,Single-ply,SBD,M
Boys,59.87,4,Derrick Gutierrez,Laredo United South,55.97,117.93,70.31,147.42,335.66,Single-ply,SBD,M
Boys,55.79,5,Fidel Quiroz,Laredo United,55.61,113.4,68.04,122.47,303.91,Single-ply,SBD,M
Boys,67.13,1,Carlos Vedarte,Laredo United South,60.06,174.63,97.52,183.7,455.86,Single-ply,SBD,M
Boys,59.87,2,Mario Cantu,Laredo Cigarroa,59.51,165.56,97.52,167.83,430.91,Single-ply,SBD,M
Boys,59.87,3,Juan Delgado,Roma,59.6,151.95,92.99,165.56,410.5,Single-ply,SBD,M
Boys,59.87,4,Jairo Morales,Laredo Cigarroa,59.51,140.61,81.65,163.29,385.55,Single-ply,SBD,M
Boys,59.87,5,Rudy Martinez,Carrizo Springs,59.15,117.93,77.11,170.1,365.14,Single-ply,SBD,M
Boys,59.87,6,Luis Guevara,Laredo Nixon,58.51,129.27,74.84,136.08,340.19,Single-ply,SBD,M
Boys,67.13,7,Joel Lopez,Bruni,59.96,131.54,56.7,149.69,337.93,Single-ply,SBD,M
Boys,59.87,DQ,Jose Carillo,Laredo Johnson,59.87,,,,,Single-ply,SBD,M
Boys,59.87,DQ,Luis Mendoza,Laredo Martin,59.87,,,,,Single-ply,SBD,M
Boys,67.13,1,Ruben Salinas,Roma,67.04,258.55,147.42,219.99,625.96,Single-ply,SBD,M
Boys,67.13,2,Cesar Alfaro,Laredo United South,63.32,192.78,129.27,199.58,521.63,Single-ply,SBD,M
Boys,74.84,3,Jose Mosqueda,Laredo Cigarroa,67.22,151.95,79.38,176.9,408.23,Single-ply,SBD,M
Boys,67.13,4,Justin Martinez,Carrizo Springs,61.33,147.42,88.45,156.49,392.36,Single-ply,SBD,M
Boys,67.13,5,Jorge Hernandez,Laredo Nixon,64.23,142.88,81.65,158.76,383.29,Single-ply,SBD,M
Boys,67.13,6,Jess Rutledge,Carrizo Springs,60.87,142.88,74.84,163.29,381.02,Single-ply,SBD,M
Boys,67.13,7,Lorenzo Cruz,Carrizo Springs,61.96,113.4,92.99,158.76,365.14,Single-ply,SBD,M
Boys,67.13,8,Albert Estrada,Laredo Martin,62.87,124.74,97.52,122.47,344.73,Single-ply,SBD,M
Boys,67.13,9,Alex Rincon,Laredo Nixon,66.5,111.13,65.77,124.74,301.64,Single-ply,SBD,M
Boys,74.84,1,Marco Ortiz,Laredo Alexander,68.31,226.8,124.74,199.58,551.11,Single-ply,SBD,M
Boys,74.84,2,Edgar Mendiola,Laredo Nixon,73.39,195.04,124.74,219.99,539.77,Single-ply,SBD,M
Boys,74.84,3,Rudy Leon,Laredo United South,74.39,183.7,108.86,226.8,519.36,Single-ply,SBD,M
Boys,74.84,4,Edgar Trejo,Laredo United South,74.84,176.9,113.4,204.12,494.42,Single-ply,SBD,M
Boys,74.84,5,Felipe Hernández #4,Laredo United,72.57,199.58,115.67,172.37,487.61,Single-ply,SBD,M
Boys,74.84,6,Frank Saucedo,Laredo United,73.21,195.04,90.72,183.7,469.47,Single-ply,SBD,M
Boys,74.84,7,Estevan Alfaro,Bruni,71.49,172.37,92.99,197.31,462.66,Single-ply,SBD,M
Boys,74.84,8,Sergio Garcia,Laredo Nixon,73.57,188.24,92.99,176.9,458.13,Single-ply,SBD,M
Boys,74.84,9,Raul Garcia,Carrizo Springs,68.13,165.56,79.38,190.51,435.45,Single-ply,SBD,M
Boys,74.84,10,Aaron Hunter,Bruni,72.3,149.69,90.72,174.63,415.04,Single-ply,SBD,M
Boys,74.84,11,Andrew Esquivel,Carrizo Springs,68.31,149.69,92.99,163.29,405.97,Single-ply,SBD,M
Boys,74.84,12,Javier Botello,Laredo Nixon,73.39,117.93,77.11,149.69,344.73,Single-ply,SBD,M
Boys,74.84,13,Raul Escamilla,Carrizo Springs,67.77,106.59,65.77,127.01,299.37,Single-ply,SBD,M
Boys,74.84,DQ,Hilario Mendoza,Laredo Johnson,71.21,,,,,Single-ply,SBD,M
Boys,82.1,DQ,Eloy Guerrero,Roma,75.07,,,,,Single-ply,SBD,M
Boys,82.1,DQ,Marco DeLuna,Laredo United South,74.98,176.9,,,,Single-ply,SBD,M
Boys,82.1,1,Jose de la Rosa,Roma,81.56,233.6,136.08,224.53,594.21,Single-ply,SBD,M
Boys,82.1,2,Carlos Martinez,Laredo Alexander,80.2,199.58,131.54,195.04,526.17,Single-ply,SBD,M
Boys,89.81,3,Victor Ramos,Laredo United South,82.33,190.51,120.2,208.65,519.36,Single-ply,SBD,M
Boys,82.1,4,Daniel Briones,Laredo United South,80.6,188.24,113.4,190.51,492.15,Single-ply,SBD,M
Boys,82.1,5,Adrian Munoz,Laredo Martin,80.83,183.7,104.33,190.51,478.54,Single-ply,SBD,M
Boys,82.1,6,Eugenio Perez,Laredo Alexander,81.92,158.76,111.13,185.97,455.86,Single-ply,SBD,M
Boys,82.1,7,Diego Chapa,Laredo Cigarroa,80.2,176.9,92.99,179.17,449.06,Single-ply,SBD,M
Boys,82.1,8,Frank Garcia,Laredo Martin,80.38,174.63,86.18,179.17,439.98,Single-ply,SBD,M
Boys,82.1,9,Benito Orozco,Laredo Martin,80.83,149.69,115.67,170.1,435.45,Single-ply,SBD,M
Boys,82.1,10,Randal Hinojosa,Laredo Alexander,78.2,158.76,97.52,170.1,426.38,Single-ply,SBD,M
Boys,82.1,11,David Reyes,Laredo Martin,75.75,151.95,90.72,179.17,421.84,Single-ply,SBD,M
Boys,82.1,12,Juan Guerra,Laredo Nixon,77.11,151.95,106.59,163.29,421.84,Single-ply,SBD,M
Boys,82.1,13,Cesar Segueda,Laredo Johnson,79.47,142.88,102.06,172.37,417.3,Single-ply,SBD,M
Boys,82.1,14,Jaime Hinojosa,Laredo Alexander,76.57,151.95,81.65,172.37,405.97,Single-ply,SBD,M
Boys,82.1,15,Randy Aguilar,Laredo Johnson,78.38,124.74,77.11,142.88,344.73,Single-ply,SBD,M
Boys,89.81,1,Carlos Muñoz,Laredo Nixon,89.27,204.12,104.33,222.26,530.7,Single-ply,SBD,M
Boys,89.81,2,Ac Martinez,Laredo United,83.19,226.8,90.72,197.31,514.83,Single-ply,SBD,M
Boys,89.81,3,David Galvan,Laredo Cigarroa,82.92,167.83,83.91,197.31,449.06,Single-ply,SBD,M
Boys,89.81,4,Nicolas Madrigal,Laredo Johnson,86.82,113.4,90.72,154.22,358.34,Single-ply,SBD,M
Boys,89.81,DQ,Alfredo Ibarra,Laredo United,89.81,,,,,Single-ply,SBD,M
Boys,89.81,DQ,Jose Herrera,Laredo United,89.81,,,,,Single-ply,SBD,M
Boys,89.81,DQ,Oscar Mohammed,Laredo United,89.81,,,,,Single-ply,SBD,M
Boys,99.79,1,Jose Coreas,Laredo Cigarroa,93.53,256.28,129.27,229.06,614.62,Single-ply,SBD,M
Boys,99.79,2,Mark Duron,Laredo Martin,96.71,244.94,145.15,215.46,605.55,Single-ply,SBD,M
Boys,109.77,3,Edgar Martinez #1,Laredo United South,99.93,206.38,131.54,222.26,560.19,Single-ply,SBD,M
Boys,99.79,4,Max Flores,Laredo Alexander,98.25,185.97,115.67,204.12,505.76,Single-ply,SBD,M
Boys,99.79,5,Jorge Martinez,Laredo United,94.44,185.97,117.93,181.44,485.34,Single-ply,SBD,M
Boys,99.79,6,Danny Saenz,Bruni,92.62,167.83,92.99,172.37,433.18,Single-ply,SBD,M
Boys,99.79,DQ,Danny Cortez,Laredo Johnson,95.25,,,,,Single-ply,SBD,M
Boys,99.79,DQ,Santos Alvarado,Laredo United,99.7,,,,,Single-ply,SBD,M
Boys,109.77,1,Victor Martinez,Laredo Martin,109.77,283.5,167.83,217.72,669.05,Single-ply,SBD,M
Boys,109.77,2,Ricky Martinez,Laredo United,106.41,265.35,140.61,195.04,601.01,Single-ply,SBD,M
Boys,109.77,3,Christian Rosas,Laredo Alexander,104.42,210.92,124.74,224.53,560.19,Single-ply,SBD,M
Boys,109.77,4,Paul Gonzalez,Laredo United South,102.06,181.44,129.27,201.85,512.56,Single-ply,SBD,M
Boys,109.77,5,Justin Henandez,Laredo Nixon,108.86,217.72,102.06,192.78,512.56,Single-ply,SBD,M
Boys,109.77,6,Orlando Rodriguez,Laredo Cigarroa,100.52,192.78,97.52,199.58,489.88,Single-ply,SBD,M
Boys,109.77,7,Victor Nenque,Laredo Nixon,105.05,183.7,99.79,158.76,442.25,Single-ply,SBD,M
Boys,109.77,8,Julio Fuentes,Carrizo Springs,106.14,151.95,104.33,181.44,437.72,Single-ply,SBD,M
Boys,109.77,DQ,Alfredo Guapo,Laredo Johnson,104.33,,,,,Single-ply,SBD,M
Boys,109.77,DQ,Jesus Lopez,Laredo Johnson,104.33,,,,,Single-ply,SBD,M
Boys,124.74,1,Frank Villareal,Laredo Martin,112.49,272.16,136.08,210.92,619.15,Single-ply,SBD,M
Boys,124.74,2,Arturo Velasquez,Roma,116.39,254.01,147.42,192.78,594.21,Single-ply,SBD,M
Boys,124.74+,3,Elud Aguero,Laredo Alexander,124.92,215.46,142.88,235.87,594.21,Single-ply,SBD,M
Boys,124.74,4,Jacob Chapa,Bruni,123.65,226.8,111.13,185.97,523.9,Single-ply,SBD,M
Boys,124.74,5,Ovidio Hernanez,Roma,114.76,204.12,106.59,199.58,510.29,Single-ply,SBD,M
Boys,124.74,6,Gilbert Hernandez,Laredo Cigarroa,119.11,192.78,113.4,174.63,480.81,Single-ply,SBD,M
Boys,124.74,7,Jesus Vasquez,Laredo Johnson,122.38,172.37,77.11,140.61,390.09,Single-ply,SBD,M
Boys,124.74,DQ,Eliseo Bernal,Laredo Johnson,117.93,,,,,Single-ply,SBD,M
Boys,124.74+,1,Jose Flores #2,Laredo Cigarroa,143.52,288.03,142.88,226.8,657.71,Single-ply,SBD,M
Boys,124.74+,2,Eduardo Garza,Laredo Johnson,132.81,251.74,127.01,208.65,587.4,Single-ply,SBD,M
Boys,124.74+,3,JR Sandoval,Laredo United,148.6,267.62,102.06,210.92,580.6,Single-ply,SBD,M
Boys,124.74+,4,Fred Romo,Laredo Alexander,137.53,188.24,127.01,215.46,530.7,Single-ply,SBD,M
Boys,124.74+,5,Jj Moreno,Roma,127.55,213.19,120.2,183.7,517.1,Single-ply,SBD,M
Boys,124.74+,6,Leo Espinoza,Laredo Martin,133.17,165.56,97.52,192.78,455.86,Single-ply,SBD,M
Boys,124.74+,7,Sammy Alarcon,Laredo Johnson,179.8,190.51,88.45,142.88,421.84,Single-ply,SBD,M
Boys,124.74+,DQ,Jose Gonzalez #16,Roma,125.19,,,,,Single-ply,SBD,M
